Acquisitions/CSV/10Mbps/Tektronix TDS2012/F0000CH1_Tek.CSV

Record Length,2.500000e+03,,-1.2e-06,-0.012,
Sample Interval,1.000000e-08,,-1.19e-06,-0.008,
Trigger Point,1.200000000000e+02,,-1.18e-06,-0.008,
,,,-1.17e-06,-0.012,
,,,-1.16e-06,-0.008,
,,,-1.15e-06,-0.012,
Source,CH1,,-1.14e-06,-0.008,
Vertical Units,V,,-1.13e-06,-0.012,
Vertical Scale,1.000000e-01,,-1.12e-06,-0.016,
Vertical Offset,0.000000e+00,,-1.11e-06,-0.008,
Horizontal Units,s,,-1.1e-06,-0.012,
Horizontal Scale,2.500000e-06,,-1.09e-06,-0.02,
Pt Fmt,Y,,-1.08e-06,-0.008,
Yzero,0.000000e+00,,-1.07e-06,-0.008,
Probe Atten,1.000000e+00,,-1.06e-06,-0.012,
Model Number,TDS2012B,,-1.05e-06,-0.008,
Serial Number,C053202,,-1.04e-06,-0.008,
Firmware Version,FV:v22.01,,-1.03e-06,-0.004,
,,,-1.02e-06,-0.008,
,,,-1.01e-06,-0.012,
,,,-1e-06,-0.008,
,,,-9.9e-07,-0.012,
,,,-9.8e-07,-0.012,
,,,-9.7e-07,-0.012,
,,,-9.6e-07,-0.008,
,,,-9.5e-07,-0.008,
,,,-9.4e-07,-0.004,
,,,-9.3e-07,-0.012,
,,,-9.2e-07,-0.012,
,,,-9.1e-07,-0.016,
,,,-9e-07,-0.016,
,,,-8.9e-07,-0.012,
,,,-8.8e-07,-0.008,
,,,-8.7e-07,-0.016,
,,,-8.6e-07,-0.016,
,,,-8.5e-07,-0.004,
,,,-8.4e-07,-0.008,
,,,-8.3e-07,-0.008,
,,,-8.2e-07,-0.008,
,,,-8.1e-07,-0.008,
,,,-8e-07,-0.0,
,,,-7.9e-07,-0.012,
,,,-7.8e-07,-0.0,
,,,-7.7e-07,-0.016,
,,,-7.6e-07,-0.012,
,,,-7.5e-07,-0.004,
,,,-7.4e-07,-0.004,
,,,-7.3e-07,-0.016,
,,,-7.2e-07,-0.008,
,,,-7.1e-07,-0.008,
,,,-7e-07,-0.004,
,,,-6.9e-07,-0.016,
,,,-6.8e-07,-0.008,
,,,-6.7e-07,-0.012,
,,,-6.6e-07,-0.004,
,,,-6.5e-07,-0.016,
,,,-6.4e-07,-0.012,
,,,-6.3e-07,-0.012,
,,,-6.2e-07,-0.004,
,,,-6.1e-07,-0.012,
,,,-6e-07,-0.004,
,,,-5.9e-07,-0.008,
,,,-5.8e-07,-0.008,
,,,-5.7e-07,-0.012,
,,,-5.6e-07,-0.0,
,,,-5.5e-07,-0.008,
,,,-5.4e-07,-0.016,
,,,-5.3e-07,-0.016,
,,,-5.2e-07,-0.008,
,,,-5.1e-07,-0.008,
,,,-5e-07,-0.004,
,,,-4.9e-07,-0.012,
,,,-4.8e-07,-0.008,
,,,-4.7e-07,-0.012,
,,,-4.6e-07,-0.008,
,,,-4.5e-07,-0.008,
,,,-4.4e-07,-0.012,
,,,-4.3e-07,-0.02,
,,,-4.2e-07,-0.012,
,,,-4.1e-07,-0.004,
,,,-4e-07,-0.004,
,,,-3.9e-07,-0.016,
,,,-3.8e-07,-0.012,
,,,-3.7e-07,-0.004,
,,,-3.6e-07,-0.016,
,,,-3.5e-07,-0.016,
,,,-3.4e-07,-0.004,
,,,-3.3e-07,-0.02,
,,,-3.2e-07,-0.004,
,,,-3.1e-07,-0.012,
,,,-3e-07,-0.012,
,,,-2.9e-07,-0.004,
,,,-2.8e-07,-0.012,
,,,-2.7e-07,-0.008,
,,,-2.6e-07,-0.012,
,,,-2.5e-07,-0.012,
,,,-2.4e-07,-0.008,
,,,-2.3e-07,-0.016,
,,,-2.2e-07,-0.004,
,,,-2.1e-07,-0.008,
,,,-2e-07,-0.004,
,,,-1.9e-07,-0.012,
,,,-1.8e-07,-0.008,
,,,-1.7e-07,-0.008,
,,,-1.6e-07,-0.016,
,,,-1.5e-07,-0.008,
,,,-1.4e-07,-0.008,
,,,-1.3e-07,-0.012,
,,,-1.2e-07,-0.008,
,,,-1.1e-07,-0.012,
,,,-1e-07,-0.012,
,,,-9e-08,-0.012,
,,,-8e-08,-0.016,
,,,-7e-08,-0.012,
,,,-6e-08,-0.008,
,,,-5e-08,-0.008,
,,,-4e-08,-0.012,
,,,-3e-08,-0.008,
,,,-2e-08,-0.012,
,,,-1e-08,-0.008,
,,,-0.0,-0.012,
,,,1e-08,-0.012,
,,,2e-08,-0.008,
,,,3e-08,-0.024,
,,,4e-08,-0.052,
,,,5e-08,-0.08,
,,,6e-08,-0.092,
,,,7e-08,-0.088,
,,,8e-08,-0.044,
,,,9e-08,0.008,
,,,1e-07,0.06,
,,,1.1e-07,0.08,
,,,1.2e-07,0.076,
,,,1.3e-07,0.056,
,,,1.4e-07,0.044,
,,,1.5e-07,0.044,
,,,1.6e-07,0.048,
,,,1.7e-07,0.032,
,,,1.8e-07,0.008,
,,,1.9e-07,-0.036,
,,,2e-07,-0.084,
,,,2.1e-07,-0.096,
,,,2.2e-07,-0.096,
,,,2.3e-07,-0.068,
,,,2.4e-07,-0.056,
,,,2.5e-07,-0.06,
,,,2.6e-07,-0.064,
,,,2.7e-07,-0.044,
,,,2.8e-07,-0.024,
,,,2.9e-07,0.032,
,,,3e-07,0.056,
,,,3.1e-07,0.084,
,,,3.2e-07,0.072,
,,,3.3e-07,0.056,
,,,3.4e-07,0.044,
,,,3.5e-07,0.036,
,,,3.6e-07,0.044,
,,,3.7e-07,0.036,
,,,3.8e-07,0.008,
,,,3.9e-07,-0.036,
,,,4e-07,-0.084,
,,,4.1e-07,-0.1,
,,,4.2e-07,-0.092,
,,,4.3e-07,-0.068,
,,,4.4e-07,-0.064,
,,,4.5e-07,-0.06,
,,,4.6e-07,-0.072,
,,,4.7e-07,-0.052,
,,,4.8e-07,-0.024,
,,,4.9e-07,0.028,
,,,5e-07,0.056,
,,,5.1e-07,0.08,
,,,5.2e-07,0.068,
,,,5.3e-07,0.052,
,,,5.4e-07,0.048,
,,,5.5e-07,0.032,
,,,5.6e-07,0.028,
,,,5.7e-07,0.032,
,,,5.8e-07,0.012,
,,,5.9e-07,-0.036,
,,,6e-07,-0.084,
,,,6.1e-07,-0.088,
,,,6.2e-07,-0.088,
,,,6.3e-07,-0.076,
,,,6.4e-07,-0.056,
,,,6.5e-07,-0.06,
,,,6.6e-07,-0.064,
,,,6.7e-07,-0.048,
,,,6.8e-07,-0.028,
,,,6.9e-07,0.016,
,,,7e-07,0.06,
,,,7.1e-07,0.076,
,,,7.2e-07,0.072,
,,,7.3e-07,0.052,
,,,7.4e-07,0.048,
,,,7.5e-07,0.044,
,,,7.6e-07,0.04,
,,,7.7e-07,0.044,
,,,7.8e-07,-0.0,
,,,7.9e-07,-0.04,
,,,8e-07,-0.076,
,,,8.1e-07,-0.096,
,,,8.2e-07,-0.096,
,,,8.3e-07,-0.072,
,,,8.4e-07,-0.068,
,,,8.5e-07,-0.064,
,,,8.6e-07,-0.068,
,,,8.7e-07,-0.048,
,,,8.8e-07,-0.02,
,,,8.9e-07,0.016,
,,,9e-07,0.06,
,,,9.1e-07,0.08,
,,,9.2e-07,0.076,
,,,9.3e-07,0.056,
,,,9.4e-07,0.044,
,,,9.5e-07,0.04,
,,,9.6e-07,0.04,
,,,9.7e-07,0.032,
,,,9.8e-07,0.008,
,,,9.9e-07,-0.04,
,,,1e-06,-0.08,
,,,1.01e-06,-0.096,
,,,1.02e-06,-0.092,
,,,1.03e-06,-0.068,
,,,1.04e-06,-0.06,
,,,1.05e-06,-0.068,
,,,1.06e-06,-0.064,
,,,1.07e-06,-0.06,
,,,1.08e-06,-0.028,
,,,1.09e-06,0.028,
,,,1.1e-06,0.064,
,,,1.11e-06,0.08,
,,,1.12e-06,0.072,
,,,1.13e-06,0.056,
,,,1.14e-06,0.048,
,,,1.15e-06,0.044,
,,,1.16e-06,0.044,
,,,1.17e-06,0.036,
,,,1.18e-06,0.008,
,,,1.19e-06,-0.044,
,,,1.2e-06,-0.076,
,,,1.21e-06,-0.096,
,,,1.22e-06,-0.092,
,,,1.23e-06,-0.068,
,,,1.24e-06,-0.064,
,,,1.25e-06,-0.068,
,,,1.26e-06,-0.06,
,,,1.27e-06,-0.052,
,,,1.28e-06,-0.02,
,,,1.29e-06,0.02,
,,,1.3e-06,0.06,
,,,1.31e-06,0.08,
,,,1.32e-06,0.072,
,,,1.33e-06,0.052,
,,,1.34e-06,0.036,
,,,1.35e-06,0.04,
,,,1.36e-06,0.04,
,,,1.37e-06,0.032,
,,,1.38e-06,0.008,
,,,1.39e-06,-0.04,
,,,1.4e-06,-0.076,
,,,1.41e-06,-0.104,
,,,1.42e-06,-0.092,
,,,1.43e-06,-0.076,
,,,1.44e-06,-0.072,
,,,1.45e-06,-0.068,
,,,1.46e-06,-0.06,
,,,1.47e-06,-0.056,
,,,1.48e-06,-0.024,
,,,1.49e-06,0.02,
,,,1.5e-06,0.06,
,,,1.51e-06,0.072,
,,,1.52e-06,0.076,
,,,1.53e-06,0.06,
,,,1.54e-06,0.04,
,,,1.55e-06,0.032,
,,,1.56e-06,0.04,
,,,1.57e-06,0.036,
,,,1.58e-06,0.004,
,,,1.59e-06,-0.044,
,,,1.6e-06,-0.084,
,,,1.61e-06,-0.096,
,,,1.62e-06,-0.096,
,,,1.63e-06,-0.068,
,,,1.64e-06,-0.064,
,,,1.65e-06,-0.068,
,,,1.66e-06,-0.06,
,,,1.67e-06,-0.056,
,,,1.68e-06,-0.032,
,,,1.69e-06,0.024,
,,,1.7e-06,0.064,
,,,1.71e-06,0.076,
,,,1.72e-06,0.076,
,,,1.73e-06,0.056,
,,,1.74e-06,0.044,
,,,1.75e-06,0.048,
,,,1.76e-06,0.048,
,,,1.77e-06,0.04,
,,,1.78e-06,0.004,
,,,1.79e-06,-0.036,
,,,1.8e-06,-0.084,
,,,1.81e-06,-0.1,
,,,1.82e-06,-0.096,
,,,1.83e-06,-0.072,
,,,1.84e-06,-0.064,
,,,1.85e-06,-0.064,
,,,1.86e-06,-0.056,
,,,1.87e-06,-0.052,
,,,1.88e-06,-0.028,
,,,1.89e-06,0.028,
,,,1.9e-06,0.064,
,,,1.91e-06,0.08,
,,,1.92e-06,0.072,
,,,1.93e-06,0.056,
,,,1.94e-06,0.044,
,,,1.95e-06,0.04,
,,,1.96e-06,0.036,
,,,1.97e-06,0.032,
,,,1.98e-06,-0.0,
,,,1.99e-06,-0.04,
,,,2e-06,-0.084,
,,,2.01e-06,-0.096,
,,,2.02e-06,-0.092,
,,,2.03e-06,-0.064,
,,,2.04e-06,-0.064,
,,,2.05e-06,-0.06,
,,,2.06e-06,-0.064,
,,,2.07e-06,-0.048,
,,,2.08e-06,-0.02,
,,,2.09e-06,0.02,
,,,2.1e-06,0.064,
,,,2.11e-06,0.08,
,,,2.12e-06,0.076,
,,,2.13e-06,0.052,
,,,2.14e-06,0.048,
,,,2.15e-06,0.044,
,,,2.16e-06,0.044,
,,,2.17e-06,0.036,
,,,2.18e-06,0.004,
,,,2.19e-06,-0.04,
,,,2.2e-06,-0.084,
,,,2.21e-06,-0.096,
,,,2.22e-06,-0.088,
,,,2.23e-06,-0.072,
,,,2.24e-06,-0.064,
,,,2.25e-06,-0.056,
,,,2.26e-06,-0.06,
,,,2.27e-06,-0.048,
,,,2.28e-06,-0.028,
,,,2.29e-06,0.02,
,,,2.3e-06,0.06,
,,,2.31e-06,0.084,
,,,2.32e-06,0.072,
,,,2.33e-06,0.048,
,,,2.34e-06,0.044,
,,,2.35e-06,0.04,
,,,2.36e-06,0.04,
,,,2.37e-06,0.036,
,,,2.38e-06,-0.0,
,,,2.39e-06,-0.044,
,,,2.4e-06,-0.084,
,,,2.41e-06,-0.096,
,,,2.42e-06,-0.096,
,,,2.43e-06,-0.08,
,,,2.44e-06,-0.068,
,,,2.45e-06,-0.06,
,,,2.46e-06,-0.068,
,,,2.47e-06,-0.052,
,,,2.48e-06,-0.028,
,,,2.49e-06,0.024,
,,,2.5e-06,0.056,
,,,2.51e-06,0.076,
,,,2.52e-06,0.076,
,,,2.53e-06,0.048,
,,,2.54e-06,0.036,
,,,2.55e-06,0.044,
,,,2.56e-06,0.048,
,,,2.57e-06,0.032,
,,,2.58e-06,-0.0,
,,,2.59e-06,-0.04,
,,,2.6e-06,-0.076,
,,,2.61e-06,-0.104,
,,,2.62e-06,-0.092,
,,,2.63e-06,-0.072,
,,,2.64e-06,-0.068,
,,,2.65e-06,-0.056,
,,,2.66e-06,-0.06,
,,,2.67e-06,-0.056,
,,,2.68e-06,-0.024,
,,,2.69e-06,0.016,
,,,2.7e-06,0.064,
,,,2.71e-06,0.076,
,,,2.72e-06,0.072,
,,,2.73e-06,0.052,
,,,2.74e-06,0.044,
,,,2.75e-06,0.044,
,,,2.76e-06,0.04,
,,,2.77e-06,0.036,
,,,2.78e-06,-0.0,
,,,2.79e-06,-0.036,
,,,2.8e-06,-0.08,
,,,2.81e-06,-0.1,
,,,2.82e-06,-0.088,
,,,2.83e-06,-0.068,
,,,2.84e-06,-0.068,
,,,2.85e-06,-0.056,
,,,2.86e-06,-0.06,
,,,2.87e-06,-0.06,
,,,2.88e-06,-0.024,
,,,2.89e-06,0.024,
,,,2.9e-06,0.064,
,,,2.91e-06,0.084,
,,,2.92e-06,0.072,
,,,2.93e-06,0.052,
,,,2.94e-06,0.044,
,,,2.95e-06,0.04,
,,,2.96e-06,0.044,
,,,2.97e-06,0.036,
,,,2.98e-06,0.004,
,,,2.99e-06,-0.036,
,,,3e-06,-0.08,
,,,3.01e-06,-0.092,
,,,3.02e-06,-0.088,
,,,3.03e-06,-0.072,
,,,3.04e-06,-0.064,
,,,3.05e-06,-0.056,
,,,3.06e-06,-0.056,
,,,3.07e-06,-0.048,
,,,3.08e-06,-0.024,
,,,3.09e-06,0.02,
,,,3.1e-06,0.06,
,,,3.11e-06,0.08,
,,,3.12e-06,0.076,
,,,3.13e-06,0.056,
,,,3.14e-06,0.048,
,,,3.15e-06,0.048,
,,,3.16e-06,0.048,
,,,3.17e-06,0.032,
,,,3.18e-06,0.012,
,,,3.19e-06,-0.04,
,,,3.2e-06,-0.084,
,,,3.21e-06,-0.092,
,,,3.22e-06,-0.096,
,,,3.23e-06,-0.08,
,,,3.24e-06,-0.06,
,,,3.25e-06,-0.056,
,,,3.26e-06,-0.06,
,,,3.27e-06,-0.056,
,,,3.28e-06,-0.02,
,,,3.29e-06,0.02,
,,,3.3e-06,0.064,
,,,3.31e-06,0.08,
,,,3.32e-06,0.072,
,,,3.33e-06,0.052,
,,,3.34e-06,0.052,
,,,3.35e-06,0.048,
,,,3.36e-06,0.048,
,,,3.37e-06,0.032,
,,,3.38e-06,0.004,
,,,3.39e-06,-0.04,
,,,3.4e-06,-0.08,
,,,3.41e-06,-0.1,
,,,3.42e-06,-0.1,
,,,3.43e-06,-0.084,
,,,3.44e-06,-0.06,
,,,3.45e-06,-0.06,
,,,3.46e-06,-0.06,
,,,3.47e-06,-0.06,
,,,3.48e-06,-0.024,
,,,3.49e-06,0.02,
,,,3.5e-06,0.06,
,,,3.51e-06,0.084,
,,,3.52e-06,0.072,
,,,3.53e-06,0.048,
,,,3.54e-06,0.044,
,,,3.55e-06,0.048,
,,,3.56e-06,0.048,
,,,3.57e-06,0.036,
,,,3.58e-06,0.008,
,,,3.59e-06,-0.036,
,,,3.6e-06,-0.088,
,,,3.61e-06,-0.096,
,,,3.62e-06,-0.092,
,,,3.63e-06,-0.076,
,,,3.64e-06,-0.064,
,,,3.65e-06,-0.068,
,,,3.66e-06,-0.064,
,,,3.67e-06,-0.052,
,,,3.68e-06,-0.024,
,,,3.69e-06,0.024,
,,,3.7e-06,0.06,
,,,3.71e-06,0.084,
,,,3.72e-06,0.072,
,,,3.73e-06,0.052,
,,,3.74e-06,0.048,
,,,3.75e-06,0.048,
,,,3.76e-06,0.044,
,,,3.77e-06,0.04,
,,,3.78e-06,-0.0,
,,,3.79e-06,-0.036,
,,,3.8e-06,-0.084,
,,,3.81e-06,-0.096,
,,,3.82e-06,-0.096,
,,,3.83e-06,-0.084,
,,,3.84e-06,-0.06,
,,,3.85e-06,-0.06,
,,,3.86e-06,-0.064,
,,,3.87e-06,-0.052,
,,,3.88e-06,-0.024,
,,,3.89e-06,0.02,
,,,3.9e-06,0.068,
,,,3.91e-06,0.076,
,,,3.92e-06,0.076,
,,,3.93e-06,0.056,
,,,3.94e-06,0.036,
,,,3.95e-06,0.044,
,,,3.96e-06,0.04,
,,,3.97e-06,0.036,
,,,3.98e-06,0.008,
,,,3.99e-06,-0.036,
,,,4e-06,-0.08,
,,,4.01e-06,-0.096,
,,,4.02e-06,-0.096,
,,,4.03e-06,-0.072,
,,,4.04e-06,-0.064,
,,,4.05e-06,-0.06,
,,,4.06e-06,-0.064,
,,,4.07e-06,-0.052,
,,,4.08e-06,-0.02,
,,,4.09e-06,0.02,
,,,4.1e-06,0.068,
,,,4.11e-06,0.088,
,,,4.12e-06,0.076,
,,,4.13e-06,0.052,
,,,4.14e-06,0.052,
,,,4.15e-06,0.044,
,,,4.16e-06,0.044,
,,,4.17e-06,0.04,
,,,4.18e-06,0.004,
,,,4.19e-06,-0.04,
,,,4.2e-06,-0.072,
,,,4.21e-06,-0.096,
,,,4.22e-06,-0.1,
,,,4.23e-06,-0.072,
,,,4.24e-06,-0.06,
,,,4.25e-06,-0.056,
,,,4.26e-06,-0.068,
,,,4.27e-06,-0.052,
,,,4.28e-06,-0.02,
,,,4.29e-06,0.024,
,,,4.3e-06,0.06,
,,,4.31e-06,0.076,
,,,4.32e-06,0.072,
,,,4.33e-06,0.056,
,,,4.34e-06,0.048,
,,,4.35e-06,0.048,
,,,4.36e-06,0.04,
,,,4.37e-06,0.04,
,,,4.38e-06,-0.0,
,,,4.39e-06,-0.04,
,,,4.4e-06,-0.08,
,,,4.41e-06,-0.104,
,,,4.42e-06,-0.1,
,,,4.43e-06,-0.068,
,,,4.44e-06,-0.064,
,,,4.45e-06,-0.06,
,,,4.46e-06,-0.068,
,,,4.47e-06,-0.048,
,,,4.48e-06,-0.028,
,,,4.49e-06,0.024,
,,,4.5e-06,0.064,
,,,4.51e-06,0.072,
,,,4.52e-06,0.06,
,,,4.53e-06,0.048,
,,,4.54e-06,0.048,
,,,4.55e-06,0.044,
,,,4.56e-06,0.04,
,,,4.57e-06,0.036,
,,,4.58e-06,0.008,
,,,4.59e-06,-0.048,
,,,4.6e-06,-0.076,
,,,4.61e-06,-0.096,
,,,4.62e-06,-0.1,
,,,4.63e-06,-0.068,
,,,4.64e-06,-0.068,
,,,4.65e-06,-0.06,
,,,4.66e-06,-0.06,
,,,4.67e-06,-0.06,
,,,4.68e-06,-0.028,
,,,4.69e-06,0.016,
,,,4.7e-06,0.064,
,,,4.71e-06,0.076,
,,,4.72e-06,0.072,
,,,4.73e-06,0.06,
,,,4.74e-06,0.044,
,,,4.75e-06,0.044,
,,,4.76e-06,0.044,
,,,4.77e-06,0.04,
,,,4.78e-06,-0.0,
,,,4.79e-06,-0.04,
,,,4.8e-06,-0.08,
,,,4.81e-06,-0.096,
,,,4.82e-06,-0.108,
,,,4.83e-06,-0.072,
,,,4.84e-06,-0.06,
,,,4.85e-06,-0.064,
,,,4.86e-06,-0.06,
,,,4.87e-06,-0.052,
,,,4.88e-06,-0.024,
,,,4.89e-06,0.024,
,,,4.9e-06,0.064,
,,,4.91e-06,0.076,
,,,4.92e-06,0.072,
,,,4.93e-06,0.048,
,,,4.94e-06,0.048,
,,,4.95e-06,0.036,
,,,4.96e-06,0.044,
,,,4.97e-06,0.036,
,,,4.98e-06,-0.0,
,,,4.99e-06,-0.04,
,,,5e-06,-0.08,
,,,5.01e-06,-0.104,
,,,5.02e-06,-0.092,
,,,5.03e-06,-0.08,
,,,5.04e-06,-0.06,
,,,5.05e-06,-0.064,
,,,5.06e-06,-0.06,
,,,5.07e-06,-0.048,
,,,5.08e-06,-0.024,
,,,5.09e-06,0.028,
,,,5.1e-06,0.072,
,,,5.11e-06,0.084,
,,,5.12e-06,0.076,
,,,5.13e-06,0.06,
,,,5.14e-06,0.048,
,,,5.15e-06,0.044,
,,,5.16e-06,0.048,
,,,5.17e-06,0.032,
,,,5.18e-06,-0.0,
,,,5.19e-06,-0.04,
,,,5.2e-06,-0.084,
,,,5.21e-06,-0.108,
,,,5.22e-06,-0.092,
,,,5.23e-06,-0.072,
,,,5.24e-06,-0.06,
,,,5.25e-06,-0.064,
,,,5.26e-06,-0.06,
,,,5.27e-06,-0.052,
,,,5.28e-06,-0.02,
,,,5.29e-06,0.024,
,,,5.3e-06,0.06,
,,,5.31e-06,0.08,
,,,5.32e-06,0.072,
,,,5.33e-06,0.056,
,,,5.34e-06,0.048,
,,,5.35e-06,0.044,
,,,5.36e-06,0.04,
,,,5.37e-06,0.032,
,,,5.38e-06,0.008,
,,,5.39e-06,-0.04,
,,,5.4e-06,-0.08,
,,,5.41e-06,-0.108,
,,,5.42e-06,-0.096,
,,,5.43e-06,-0.08,
,,,5.44e-06,-0.06,
,,,5.45e-06,-0.064,
,,,5.46e-06,-0.06,
,,,5.47e-06,-0.06,
,,,5.48e-06,-0.024,
,,,5.49e-06,0.024,
,,,5.5e-06,0.056,
,,,5.51e-06,0.068,
,,,5.52e-06,0.072,
,,,5.53e-06,0.052,
,,,5.54e-06,0.044,
,,,5.55e-06,0.04,
,,,5.56e-06,0.048,
,,,5.57e-06,0.036,
,,,5.58e-06,0.004,
,,,5.59e-06,-0.036,
,,,5.6e-06,-0.08,
,,,5.61e-06,-0.104,
,,,5.62e-06,-0.096,
,,,5.63e-06,-0.072,
,,,5.64e-06,-0.064,
,,,5.65e-06,-0.06,
,,,5.66e-06,-0.068,
,,,5.67e-06,-0.052,
,,,5.68e-06,-0.024,
,,,5.69e-06,0.02,
,,,5.7e-06,0.056,
,,,5.71e-06,0.08,
,,,5.72e-06,0.084,
,,,5.73e-06,0.056,
,,,5.74e-06,0.044,
,,,5.75e-06,0.048,
,,,5.76e-06,0.04,
,,,5.77e-06,0.032,
,,,5.78e-06,-0.0,
,,,5.79e-06,-0.04,
,,,5.8e-06,-0.08,
,,,5.81e-06,-0.108,
,,,5.82e-06,-0.096,
,,,5.83e-06,-0.068,
,,,5.84e-06,-0.064,
,,,5.85e-06,-0.056,
,,,5.86e-06,-0.068,
,,,5.87e-06,-0.052,
,,,5.88e-06,-0.02,
,,,5.89e-06,0.024,
,,,5.9e-06,0.064,
,,,5.91e-06,0.084,
,,,5.92e-06,0.076,
,,,5.93e-06,0.052,
,,,5.94e-06,0.044,
,,,5.95e-06,0.044,
,,,5.96e-06,0.044,
,,,5.97e-06,0.032,
,,,5.98e-06,-0.0,
,,,5.99e-06,-0.032,
,,,6e-06,-0.076,
,,,6.01e-06,-0.096,
,,,6.02e-06,-0.092,
,,,6.03e-06,-0.072,
,,,6.04e-06,-0.06,
,,,6.05e-06,-0.064,
,,,6.06e-06,-0.06,
,,,6.07e-06,-0.056,
,,,6.08e-06,-0.02,
,,,6.09e-06,0.02,
,,,6.1e-06,0.064,
,,,6.11e-06,0.076,
,,,6.12e-06,0.072,
,,,6.13e-06,0.036,
,,,6.14e-06,-0.02,
,,,6.15e-06,-0.072,
,,,6.16e-06,-0.096,
,,,6.17e-06,-0.092,
,,,6.18e-06,-0.044,
,,,6.19e-06,0.008,
,,,6.2e-06,0.052,
,,,6.21e-06,0.08,
,,,6.22e-06,0.072,
,,,6.23e-06,0.06,
,,,6.24e-06,0.036,
,,,6.25e-06,0.044,
,,,6.26e-06,0.044,
,,,6.27e-06,0.036,
,,,6.28e-06,0.004,
,,,6.29e-06,-0.044,
,,,6.3e-06,-0.08,
,,,6.31e-06,-0.1,
,,,6.32e-06,-0.096,
,,,6.33e-06,-0.044,
,,,6.34e-06,-0.0,
,,,6.35e-06,0.06,
,,,6.36e-06,0.076,
,,,6.37e-06,0.068,
,,,6.38e-06,0.024,
,,,6.39e-06,-0.028,
,,,6.4e-06,-0.08,
,,,6.41e-06,-0.092,
,,,6.42e-06,-0.096,
,,,6.43e-06,-0.072,
,,,6.44e-06,-0.064,
,,,6.45e-06,-0.06,
,,,6.46e-06,-0.068,
,,,6.47e-06,-0.056,
,,,6.48e-06,-0.02,
,,,6.49e-06,0.016,
,,,6.5e-06,0.052,
,,,6.51e-06,0.084,
,,,6.52e-06,0.08,
,,,6.53e-06,0.032,
,,,6.54e-06,-0.028,
,,,6.55e-06,-0.076,
,,,6.56e-06,-0.096,
,,,6.57e-06,-0.092,
,,,6.58e-06,-0.044,
,,,6.59e-06,-0.0,
,,,6.6e-06,0.052,
,,,6.61e-06,0.076,
,,,6.62e-06,0.072,
,,,6.63e-06,0.024,
,,,6.64e-06,-0.016,
,,,6.65e-06,-0.08,
,,,6.66e-06,-0.1,
,,,6.67e-06,-0.092,
,,,6.68e-06,-0.052,
,,,6.69e-06,-0.0,
,,,6.7e-06,0.06,
,,,6.71e-06,0.076,
,,,6.72e-06,0.076,
,,,6.73e-06,0.052,
,,,6.74e-06,0.04,
,,,6.75e-06,0.052,
,,,6.76e-06,0.04,
,,,6.77e-06,0.028,
,,,6.78e-06,0.004,
,,,6.79e-06,-0.04,
,,,6.8e-06,-0.088,
,,,6.81e-06,-0.1,
,,,6.82e-06,-0.104,
,,,6.83e-06,-0.08,
,,,6.84e-06,-0.064,
,,,6.85e-06,-0.064,
,,,6.86e-06,-0.056,
,,,6.87e-06,-0.048,
,,,6.88e-06,-0.024,
,,,6.89e-06,0.024,
,,,6.9e-06,0.06,
,,,6.91e-06,0.08,
,,,6.92e-06,0.068,
,,,6.93e-06,0.02,
,,,6.94e-06,-0.024,
,,,6.95e-06,-0.076,
,,,6.96e-06,-0.096,
,,,6.97e-06,-0.084,
,,,6.98e-06,-0.044,
,,,6.99e-06,-0.004,
,,,7e-06,0.056,
,,,7.01e-06,0.072,
,,,7.02e-06,0.068,
,,,7.03e-06,0.056,
,,,7.04e-06,0.048,
,,,7.05e-06,0.044,
,,,7.06e-06,0.04,
,,,7.07e-06,0.04,
,,,7.08e-06,0.008,
,,,7.09e-06,-0.036,
,,,7.1e-06,-0.084,
,,,7.11e-06,-0.096,
,,,7.12e-06,-0.088,
,,,7.13e-06,-0.08,
,,,7.14e-06,-0.06,
,,,7.15e-06,-0.06,
,,,7.16e-06,-0.064,
,,,7.17e-06,-0.048,
,,,7.18e-06,-0.02,
,,,7.19e-06,0.024,
,,,7.2e-06,0.064,
,,,7.21e-06,0.076,
,,,7.22e-06,0.08,
,,,7.23e-06,0.048,
,,,7.24e-06,0.04,
,,,7.25e-06,0.04,
,,,7.26e-06,0.044,
,,,7.27e-06,0.032,
,,,7.28e-06,-0.0,
,,,7.29e-06,-0.04,
,,,7.3e-06,-0.084,
,,,7.31e-06,-0.1,
,,,7.32e-06,-0.088,
,,,7.33e-06,-0.076,
,,,7.34e-06,-0.068,
,,,7.35e-06,-0.06,
,,,7.36e-06,-0.06,
,,,7.37e-06,-0.052,
,,,7.38e-06,-0.032,
,,,7.39e-06,0.016,
,,,7.4e-06,0.064,
,,,7.41e-06,0.08,
,,,7.42e-06,0.072,
,,,7.43e-06,0.044,
,,,7.44e-06,0.04,
,,,7.45e-06,0.036,
,,,7.46e-06,0.04,
,,,7.47e-06,0.032,
,,,7.48e-06,-0.004,
,,,7.49e-06,-0.056,
,,,7.5e-06,-0.084,
,,,7.51e-06,-0.1,
,,,7.52e-06,-0.088,
,,,7.53e-06,-0.052,
,,,7.54e-06,0.008,
,,,7.55e-06,0.056,
,,,7.56e-06,0.072,
,,,7.57e-06,0.068,
,,,7.58e-06,0.028,
,,,7.59e-06,-0.028,
,,,7.6e-06,-0.072,
,,,7.61e-06,-0.096,
,,,7.62e-06,-0.092,
,,,7.63e-06,-0.076,
,,,7.64e-06,-0.076,
,,,7.65e-06,-0.072,
,,,7.66e-06,-0.068,
,,,7.67e-06,-0.056,
,,,7.68e-06,-0.024,
,,,7.69e-06,0.024,
,,,7.7e-06,0.072,
,,,7.71e-06,0.084,
,,,7.72e-06,0.076,
,,,7.73e-06,0.056,
,,,7.74e-06,0.048,
,,,7.75e-06,0.04,
,,,7.76e-06,0.04,
,,,7.77e-06,0.028,
,,,7.78e-06,-0.0,
,,,7.79e-06,-0.052,
,,,7.8e-06,-0.08,
,,,7.81e-06,-0.096,
,,,7.82e-06,-0.096,
,,,7.83e-06,-0.044,
,,,7.84e-06,0.008,
,,,7.85e-06,0.048,
,,,7.86e-06,0.076,
,,,7.87e-06,0.068,
,,,7.88e-06,0.024,
,,,7.89e-06,-0.024,
,,,7.9e-06,-0.076,
,,,7.91e-06,-0.088,
,,,7.92e-06,-0.092,
,,,7.93e-06,-0.072,
,,,7.94e-06,-0.064,
,,,7.95e-06,-0.06,
,,,7.96e-06,-0.064,
,,,7.97e-06,-0.052,
,,,7.98e-06,-0.028,
,,,7.99e-06,0.02,
,,,8e-06,0.06,
,,,8.01e-06,0.08,
,,,8.02e-06,0.076,
,,,8.03e-06,0.028,
,,,8.04e-06,-0.024,
,,,8.05e-06,-0.072,
,,,8.06e-06,-0.092,
,,,8.07e-06,-0.092,
,,,8.08e-06,-0.052,
,,,8.09e-06,-0.0,
,,,8.1e-06,0.056,
,,,8.11e-06,0.076,
,,,8.12e-06,0.068,
,,,8.13e-06,0.036,
,,,8.14e-06,-0.024,
,,,8.15e-06,-0.084,
,,,8.16e-06,-0.088,
,,,8.17e-06,-0.08,
,,,8.18e-06,-0.06,
,,,8.19e-06,0.008,
,,,8.2e-06,0.056,
,,,8.21e-06,0.08,
,,,8.22e-06,0.06,
,,,8.23e-06,0.028,
,,,8.24e-06,-0.024,
,,,8.25e-06,-0.068,
,,,8.26e-06,-0.092,
,,,8.27e-06,-0.088,
,,,8.28e-06,-0.044,
,,,8.29e-06,-0.0,
,,,8.3e-06,0.056,
,,,8.31e-06,0.072,
,,,8.32e-06,0.064,
,,,8.33e-06,0.024,
,,,8.34e-06,-0.024,
,,,8.35e-06,-0.068,
,,,8.36e-06,-0.092,
,,,8.37e-06,-0.092,
,,,8.38e-06,-0.048,
,,,8.39e-06,0.004,
,,,8.4e-06,0.052,
,,,8.41e-06,0.076,
,,,8.42e-06,0.056,
,,,8.43e-06,0.052,
,,,8.44e-06,0.04,
,,,8.45e-06,0.04,
,,,8.46e-06,0.044,
,,,8.47e-06,0.032,
,,,8.48e-06,-0.0,
,,,8.49e-06,-0.04,
,,,8.5e-06,-0.08,
,,,8.51e-06,-0.104,
,,,8.52e-06,-0.096,
,,,8.53e-06,-0.048,
,,,8.54e-06,-0.0,
,,,8.55e-06,0.052,
,,,8.56e-06,0.076,
,,,8.57e-06,0.072,
,,,8.58e-06,0.028,
,,,8.59e-06,-0.02,
,,,8.6e-06,-0.08,
,,,8.61e-06,-0.1,
,,,8.62e-06,-0.088,
,,,8.63e-06,-0.084,
,,,8.64e-06,-0.076,
,,,8.65e-06,-0.068,
,,,8.66e-06,-0.068,
,,,8.67e-06,-0.048,
,,,8.68e-06,-0.024,
,,,8.69e-06,0.032,
,,,8.7e-06,0.064,
,,,8.71e-06,0.076,
,,,8.72e-06,0.076,
,,,8.73e-06,0.056,
,,,8.74e-06,0.044,
,,,8.75e-06,0.036,
,,,8.76e-06,0.044,
,,,8.77e-06,0.028,
,,,8.78e-06,-0.004,
,,,8.79e-06,-0.04,
,,,8.8e-06,-0.08,
,,,8.81e-06,-0.1,
,,,8.82e-06,-0.092,
,,,8.83e-06,-0.048,
,,,8.84e-06,-0.004,
,,,8.85e-06,0.06,
,,,8.86e-06,0.076,
,,,8.87e-06,0.072,
,,,8.88e-06,0.02,
,,,8.89e-06,-0.024,
,,,8.9e-06,-0.068,
,,,8.91e-06,-0.096,
,,,8.92e-06,-0.088,
,,,8.93e-06,-0.04,
,,,8.94e-06,0.008,
,,,8.95e-06,0.052,
,,,8.96e-06,0.076,
,,,8.97e-06,0.06,
,,,8.98e-06,0.024,
,,,8.99e-06,-0.028,
,,,9e-06,-0.072,
,,,9.01e-06,-0.092,
,,,9.02e-06,-0.088,
,,,9.03e-06,-0.068,
,,,9.04e-06,-0.068,
,,,9.05e-06,-0.056,
,,,9.06e-06,-0.064,
,,,9.07e-06,-0.056,
,,,9.08e-06,-0.024,
,,,9.09e-06,0.028,
,,,9.1e-06,0.068,
,,,9.11e-06,0.076,
