Acquisitions/CSV/10Mbps/Tektronix TDS2012/F0026CH1_Tek.CSV

Record Length,2.500000e+03,,-4e-07,-0.004,
Sample Interval,1.000000e-08,,-3.9e-07,0.004,
Trigger Point,4.000000000000e+01,,-3.8e-07,-0.0,
,,,-3.7e-07,-0.004,
,,,-3.6e-07,-0.004,
,,,-3.5e-07,-0.0,
Source,CH1,,-3.4e-07,-0.008,
Vertical Units,V,,-3.3e-07,-0.008,
Vertical Scale,1.000000e-01,,-3.2e-07,-0.0,
Vertical Offset,0.000000e+00,,-3.1e-07,-0.004,
Horizontal Units,s,,-3e-07,-0.004,
Horizontal Scale,2.500000e-06,,-2.9e-07,-0.004,
Pt Fmt,Y,,-2.8e-07,-0.0,
Yzero,0.000000e+00,,-2.7e-07,-0.004,
Probe Atten,1.000000e+00,,-2.6e-07,-0.0,
Model Number,TDS2012B,,-2.5e-07,-0.004,
Serial Number,C053395,,-2.4e-07,-0.004,
Firmware Version,FV:v22.01,,-2.3e-07,-0.0,
,,,-2.2e-07,-0.0,
,,,-2.1e-07,-0.0,
,,,-2e-07,-0.0,
,,,-1.9e-07,-0.004,
,,,-1.8e-07,-0.0,
,,,-1.7e-07,-0.0,
,,,-1.6e-07,-0.004,
,,,-1.5e-07,-0.004,
,,,-1.4e-07,-0.004,
,,,-1.3e-07,-0.0,
,,,-1.2e-07,-0.004,
,,,-1.1e-07,-0.004,
,,,-1e-07,-0.0,
,,,-9e-08,-0.0,
,,,-8e-08,-0.004,
,,,-7e-08,-0.0,
,,,-6e-08,-0.0,
,,,-5e-08,-0.0,
,,,-4e-08,-0.004,
,,,-3e-08,-0.0,
,,,-2e-08,-0.0,
,,,-1e-08,-0.008,
,,,-0.0,-0.0,
,,,1e-08,-0.004,
,,,2e-08,-0.0,
,,,3e-08,-0.004,
,,,4e-08,-0.028,
,,,5e-08,-0.164,
,,,6e-08,-0.188,
,,,7e-08,-0.152,
,,,8e-08,-0.064,
,,,9e-08,0.032,
,,,1e-07,0.112,
,,,1.1e-07,0.168,
,,,1.2e-07,0.184,
,,,1.3e-07,0.172,
,,,1.4e-07,0.124,
,,,1.5e-07,0.136,
,,,1.6e-07,0.136,
,,,1.7e-07,0.1,
,,,1.8e-07,0.036,
,,,1.9e-07,-0.028,
,,,2e-07,-0.112,
,,,2.1e-07,-0.172,
,,,2.2e-07,-0.184,
,,,2.3e-07,-0.168,
,,,2.4e-07,-0.124,
,,,2.5e-07,-0.136,
,,,2.6e-07,-0.136,
,,,2.7e-07,-0.108,
,,,2.8e-07,-0.044,
,,,2.9e-07,0.02,
,,,3e-07,0.112,
,,,3.1e-07,0.168,
,,,3.2e-07,0.18,
,,,3.3e-07,0.172,
,,,3.4e-07,0.124,
,,,3.5e-07,0.132,
,,,3.6e-07,0.128,
,,,3.7e-07,0.096,
,,,3.8e-07,0.036,
,,,3.9e-07,-0.024,
,,,4e-07,-0.112,
,,,4.1e-07,-0.168,
,,,4.2e-07,-0.18,
,,,4.3e-07,-0.168,
,,,4.4e-07,-0.12,
,,,4.5e-07,-0.136,
,,,4.6e-07,-0.132,
,,,4.7e-07,-0.104,
,,,4.8e-07,-0.04,
,,,4.9e-07,0.024,
,,,5e-07,0.1,
,,,5.1e-07,0.164,
,,,5.2e-07,0.172,
,,,5.3e-07,0.168,
,,,5.4e-07,0.12,
,,,5.5e-07,0.124,
,,,5.6e-07,0.128,
,,,5.7e-07,0.104,
,,,5.8e-07,0.04,
,,,5.9e-07,-0.024,
,,,6e-07,-0.116,
,,,6.1e-07,-0.164,
,,,6.2e-07,-0.176,
,,,6.3e-07,-0.164,
,,,6.4e-07,-0.12,
,,,6.5e-07,-0.128,
,,,6.6e-07,-0.132,
,,,6.7e-07,-0.1,
,,,6.8e-07,-0.044,
,,,6.9e-07,0.02,
,,,7e-07,0.108,
,,,7.1e-07,0.168,
,,,7.2e-07,0.172,
,,,7.3e-07,0.168,
,,,7.4e-07,0.124,
,,,7.5e-07,0.128,
,,,7.6e-07,0.132,
,,,7.7e-07,0.1,
,,,7.8e-07,0.036,
,,,7.9e-07,-0.028,
,,,8e-07,-0.112,
,,,8.1e-07,-0.164,
,,,8.2e-07,-0.18,
,,,8.3e-07,-0.168,
,,,8.4e-07,-0.124,
,,,8.5e-07,-0.132,
,,,8.6e-07,-0.136,
,,,8.7e-07,-0.1,
,,,8.8e-07,-0.04,
,,,8.9e-07,0.024,
,,,9e-07,0.108,
,,,9.1e-07,0.164,
,,,9.2e-07,0.172,
,,,9.3e-07,0.168,
,,,9.4e-07,0.12,
,,,9.5e-07,0.128,
,,,9.6e-07,0.132,
,,,9.7e-07,0.1,
,,,9.8e-07,0.04,
,,,9.9e-07,-0.02,
,,,1e-06,-0.112,
,,,1.01e-06,-0.164,
,,,1.02e-06,-0.18,
,,,1.03e-06,-0.164,
,,,1.04e-06,-0.124,
,,,1.05e-06,-0.128,
,,,1.06e-06,-0.132,
,,,1.07e-06,-0.1,
,,,1.08e-06,-0.04,
,,,1.09e-06,0.024,
,,,1.1e-06,0.108,
,,,1.11e-06,0.16,
,,,1.12e-06,0.18,
,,,1.13e-06,0.168,
,,,1.14e-06,0.12,
,,,1.15e-06,0.128,
,,,1.16e-06,0.132,
,,,1.17e-06,0.1,
,,,1.18e-06,0.04,
,,,1.19e-06,-0.02,
,,,1.2e-06,-0.112,
,,,1.21e-06,-0.164,
,,,1.22e-06,-0.18,
,,,1.23e-06,-0.168,
,,,1.24e-06,-0.124,
,,,1.25e-06,-0.132,
,,,1.26e-06,-0.14,
,,,1.27e-06,-0.1,
,,,1.28e-06,-0.036,
,,,1.29e-06,0.02,
,,,1.3e-06,0.104,
,,,1.31e-06,0.164,
,,,1.32e-06,0.176,
,,,1.33e-06,0.168,
,,,1.34e-06,0.12,
,,,1.35e-06,0.124,
,,,1.36e-06,0.132,
,,,1.37e-06,0.096,
,,,1.38e-06,0.04,
,,,1.39e-06,-0.024,
,,,1.4e-06,-0.116,
,,,1.41e-06,-0.168,
,,,1.42e-06,-0.18,
,,,1.43e-06,-0.164,
,,,1.44e-06,-0.124,
,,,1.45e-06,-0.128,
,,,1.46e-06,-0.136,
,,,1.47e-06,-0.1,
,,,1.48e-06,-0.04,
,,,1.49e-06,0.024,
,,,1.5e-06,0.112,
,,,1.51e-06,0.164,
,,,1.52e-06,0.176,
,,,1.53e-06,0.168,
,,,1.54e-06,0.12,
,,,1.55e-06,0.128,
,,,1.56e-06,0.136,
,,,1.57e-06,0.1,
,,,1.58e-06,0.036,
,,,1.59e-06,-0.024,
,,,1.6e-06,-0.112,
,,,1.61e-06,-0.172,
,,,1.62e-06,-0.176,
,,,1.63e-06,-0.168,
,,,1.64e-06,-0.128,
,,,1.65e-06,-0.132,
,,,1.66e-06,-0.132,
,,,1.67e-06,-0.1,
,,,1.68e-06,-0.04,
,,,1.69e-06,0.02,
,,,1.7e-06,0.108,
,,,1.71e-06,0.164,
,,,1.72e-06,0.176,
,,,1.73e-06,0.168,
,,,1.74e-06,0.12,
,,,1.75e-06,0.128,
,,,1.76e-06,0.136,
,,,1.77e-06,0.1,
,,,1.78e-06,0.04,
,,,1.79e-06,-0.028,
,,,1.8e-06,-0.108,
,,,1.81e-06,-0.172,
,,,1.82e-06,-0.176,
,,,1.83e-06,-0.168,
,,,1.84e-06,-0.124,
,,,1.85e-06,-0.132,
,,,1.86e-06,-0.136,
,,,1.87e-06,-0.108,
,,,1.88e-06,-0.044,
,,,1.89e-06,0.028,
,,,1.9e-06,0.112,
,,,1.91e-06,0.164,
,,,1.92e-06,0.176,
,,,1.93e-06,0.168,
,,,1.94e-06,0.116,
,,,1.95e-06,0.124,
,,,1.96e-06,0.132,
,,,1.97e-06,0.096,
,,,1.98e-06,0.036,
,,,1.99e-06,-0.024,
,,,2e-06,-0.108,
,,,2.01e-06,-0.164,
,,,2.02e-06,-0.176,
,,,2.03e-06,-0.168,
,,,2.04e-06,-0.128,
,,,2.05e-06,-0.128,
,,,2.06e-06,-0.132,
,,,2.07e-06,-0.1,
,,,2.08e-06,-0.048,
,,,2.09e-06,0.02,
,,,2.1e-06,0.108,
,,,2.11e-06,0.168,
,,,2.12e-06,0.176,
,,,2.13e-06,0.168,
,,,2.14e-06,0.12,
,,,2.15e-06,0.128,
,,,2.16e-06,0.132,
,,,2.17e-06,0.1,
,,,2.18e-06,0.04,
,,,2.19e-06,-0.024,
,,,2.2e-06,-0.112,
,,,2.21e-06,-0.168,
,,,2.22e-06,-0.172,
,,,2.23e-06,-0.168,
,,,2.24e-06,-0.12,
,,,2.25e-06,-0.132,
,,,2.26e-06,-0.132,
,,,2.27e-06,-0.1,
,,,2.28e-06,-0.04,
,,,2.29e-06,0.024,
,,,2.3e-06,0.108,
,,,2.31e-06,0.164,
,,,2.32e-06,0.176,
,,,2.33e-06,0.164,
,,,2.34e-06,0.12,
,,,2.35e-06,0.128,
,,,2.36e-06,0.132,
,,,2.37e-06,0.1,
,,,2.38e-06,0.04,
,,,2.39e-06,-0.028,
,,,2.4e-06,-0.108,
,,,2.41e-06,-0.168,
,,,2.42e-06,-0.176,
,,,2.43e-06,-0.172,
,,,2.44e-06,-0.12,
,,,2.45e-06,-0.136,
,,,2.46e-06,-0.128,
,,,2.47e-06,-0.1,
,,,2.48e-06,-0.04,
,,,2.49e-06,0.024,
,,,2.5e-06,0.104,
,,,2.51e-06,0.168,
,,,2.52e-06,0.176,
,,,2.53e-06,0.172,
,,,2.54e-06,0.116,
,,,2.55e-06,0.128,
,,,2.56e-06,0.124,
,,,2.57e-06,0.1,
,,,2.58e-06,0.04,
,,,2.59e-06,-0.024,
,,,2.6e-06,-0.112,
,,,2.61e-06,-0.172,
,,,2.62e-06,-0.176,
,,,2.63e-06,-0.172,
,,,2.64e-06,-0.128,
,,,2.65e-06,-0.132,
,,,2.66e-06,-0.136,
,,,2.67e-06,-0.108,
,,,2.68e-06,-0.048,
,,,2.69e-06,0.028,
,,,2.7e-06,0.108,
,,,2.71e-06,0.168,
,,,2.72e-06,0.18,
,,,2.73e-06,0.164,
,,,2.74e-06,0.12,
,,,2.75e-06,0.128,
,,,2.76e-06,0.132,
,,,2.77e-06,0.1,
,,,2.78e-06,0.036,
,,,2.79e-06,-0.02,
,,,2.8e-06,-0.108,
,,,2.81e-06,-0.168,
,,,2.82e-06,-0.176,
,,,2.83e-06,-0.164,
,,,2.84e-06,-0.128,
,,,2.85e-06,-0.128,
,,,2.86e-06,-0.136,
,,,2.87e-06,-0.104,
,,,2.88e-06,-0.04,
,,,2.89e-06,0.024,
,,,2.9e-06,0.108,
,,,2.91e-06,0.16,
,,,2.92e-06,0.176,
,,,2.93e-06,0.168,
,,,2.94e-06,0.12,
,,,2.95e-06,0.128,
,,,2.96e-06,0.136,
,,,2.97e-06,0.1,
,,,2.98e-06,0.04,
,,,2.99e-06,-0.024,
,,,3e-06,-0.112,
,,,3.01e-06,-0.172,
,,,3.02e-06,-0.172,
,,,3.03e-06,-0.168,
,,,3.04e-06,-0.124,
,,,3.05e-06,-0.128,
,,,3.06e-06,-0.128,
,,,3.07e-06,-0.096,
,,,3.08e-06,-0.04,
,,,3.09e-06,0.024,
,,,3.1e-06,0.108,
,,,3.11e-06,0.164,
,,,3.12e-06,0.176,
,,,3.13e-06,0.164,
,,,3.14e-06,0.124,
,,,3.15e-06,0.128,
,,,3.16e-06,0.136,
,,,3.17e-06,0.104,
,,,3.18e-06,0.036,
,,,3.19e-06,-0.024,
,,,3.2e-06,-0.112,
,,,3.21e-06,-0.168,
,,,3.22e-06,-0.184,
,,,3.23e-06,-0.168,
,,,3.24e-06,-0.132,
,,,3.25e-06,-0.128,
,,,3.26e-06,-0.132,
,,,3.27e-06,-0.104,
,,,3.28e-06,-0.044,
,,,3.29e-06,0.024,
,,,3.3e-06,0.108,
,,,3.31e-06,0.164,
,,,3.32e-06,0.18,
,,,3.33e-06,0.168,
,,,3.34e-06,0.12,
,,,3.35e-06,0.128,
,,,3.36e-06,0.136,
,,,3.37e-06,0.1,
,,,3.38e-06,0.04,
,,,3.39e-06,-0.024,
,,,3.4e-06,-0.112,
,,,3.41e-06,-0.164,
,,,3.42e-06,-0.18,
,,,3.43e-06,-0.168,
,,,3.44e-06,-0.124,
,,,3.45e-06,-0.128,
,,,3.46e-06,-0.136,
,,,3.47e-06,-0.1,
,,,3.48e-06,-0.04,
,,,3.49e-06,0.024,
,,,3.5e-06,0.112,
,,,3.51e-06,0.172,
,,,3.52e-06,0.18,
,,,3.53e-06,0.168,
,,,3.54e-06,0.116,
,,,3.55e-06,0.124,
,,,3.56e-06,0.132,
,,,3.57e-06,0.104,
,,,3.58e-06,0.032,
,,,3.59e-06,-0.024,
,,,3.6e-06,-0.112,
,,,3.61e-06,-0.168,
,,,3.62e-06,-0.176,
,,,3.63e-06,-0.172,
,,,3.64e-06,-0.12,
,,,3.65e-06,-0.132,
,,,3.66e-06,-0.136,
,,,3.67e-06,-0.104,
,,,3.68e-06,-0.044,
,,,3.69e-06,0.024,
,,,3.7e-06,0.112,
,,,3.71e-06,0.168,
,,,3.72e-06,0.18,
,,,3.73e-06,0.164,
,,,3.74e-06,0.128,
,,,3.75e-06,0.132,
,,,3.76e-06,0.128,
,,,3.77e-06,0.096,
,,,3.78e-06,0.044,
,,,3.79e-06,-0.024,
,,,3.8e-06,-0.112,
,,,3.81e-06,-0.168,
,,,3.82e-06,-0.18,
,,,3.83e-06,-0.164,
,,,3.84e-06,-0.124,
,,,3.85e-06,-0.128,
,,,3.86e-06,-0.132,
,,,3.87e-06,-0.1,
,,,3.88e-06,-0.036,
,,,3.89e-06,0.024,
,,,3.9e-06,0.104,
,,,3.91e-06,0.164,
,,,3.92e-06,0.176,
,,,3.93e-06,0.168,
,,,3.94e-06,0.124,
,,,3.95e-06,0.128,
,,,3.96e-06,0.132,
,,,3.97e-06,0.104,
,,,3.98e-06,0.04,
,,,3.99e-06,-0.028,
,,,4e-06,-0.108,
,,,4.01e-06,-0.168,
,,,4.02e-06,-0.172,
,,,4.03e-06,-0.172,
,,,4.04e-06,-0.128,
,,,4.05e-06,-0.136,
,,,4.06e-06,-0.136,
,,,4.07e-06,-0.104,
,,,4.08e-06,-0.044,
,,,4.09e-06,0.024,
,,,4.1e-06,0.108,
,,,4.11e-06,0.164,
,,,4.12e-06,0.172,
,,,4.13e-06,0.172,
,,,4.14e-06,0.12,
,,,4.15e-06,0.132,
,,,4.16e-06,0.128,
,,,4.17e-06,0.1,
,,,4.18e-06,0.044,
,,,4.19e-06,-0.024,
,,,4.2e-06,-0.108,
,,,4.21e-06,-0.172,
,,,4.22e-06,-0.18,
,,,4.23e-06,-0.168,
,,,4.24e-06,-0.12,
,,,4.25e-06,-0.128,
,,,4.26e-06,-0.132,
,,,4.27e-06,-0.104,
,,,4.28e-06,-0.044,
,,,4.29e-06,0.028,
,,,4.3e-06,0.108,
,,,4.31e-06,0.164,
,,,4.32e-06,0.172,
,,,4.33e-06,0.168,
,,,4.34e-06,0.12,
,,,4.35e-06,0.136,
,,,4.36e-06,0.132,
,,,4.37e-06,0.1,
,,,4.38e-06,0.04,
,,,4.39e-06,-0.024,
,,,4.4e-06,-0.108,
,,,4.41e-06,-0.168,
,,,4.42e-06,-0.184,
,,,4.43e-06,-0.164,
,,,4.44e-06,-0.12,
,,,4.45e-06,-0.128,
,,,4.46e-06,-0.136,
,,,4.47e-06,-0.104,
,,,4.48e-06,-0.044,
,,,4.49e-06,0.024,
,,,4.5e-06,0.108,
,,,4.51e-06,0.172,
,,,4.52e-06,0.172,
,,,4.53e-06,0.164,
,,,4.54e-06,0.124,
,,,4.55e-06,0.124,
,,,4.56e-06,0.132,
,,,4.57e-06,0.1,
,,,4.58e-06,0.044,
,,,4.59e-06,-0.024,
,,,4.6e-06,-0.112,
,,,4.61e-06,-0.164,
,,,4.62e-06,-0.18,
,,,4.63e-06,-0.164,
,,,4.64e-06,-0.124,
,,,4.65e-06,-0.128,
,,,4.66e-06,-0.136,
,,,4.67e-06,-0.104,
,,,4.68e-06,-0.04,
,,,4.69e-06,0.024,
,,,4.7e-06,0.108,
,,,4.71e-06,0.164,
,,,4.72e-06,0.172,
,,,4.73e-06,0.168,
,,,4.74e-06,0.12,
,,,4.75e-06,0.128,
,,,4.76e-06,0.132,
,,,4.77e-06,0.1,
,,,4.78e-06,0.04,
,,,4.79e-06,-0.024,
,,,4.8e-06,-0.112,
,,,4.81e-06,-0.168,
,,,4.82e-06,-0.176,
,,,4.83e-06,-0.168,
,,,4.84e-06,-0.124,
,,,4.85e-06,-0.132,
,,,4.86e-06,-0.132,
,,,4.87e-06,-0.104,
,,,4.88e-06,-0.04,
,,,4.89e-06,0.028,
,,,4.9e-06,0.108,
,,,4.91e-06,0.16,
,,,4.92e-06,0.176,
,,,4.93e-06,0.168,
,,,4.94e-06,0.116,
,,,4.95e-06,0.128,
,,,4.96e-06,0.132,
,,,4.97e-06,0.096,
,,,4.98e-06,0.04,
,,,4.99e-06,-0.028,
,,,5e-06,-0.108,
,,,5.01e-06,-0.164,
,,,5.02e-06,-0.176,
,,,5.03e-06,-0.164,
,,,5.04e-06,-0.12,
,,,5.05e-06,-0.128,
,,,5.06e-06,-0.136,
,,,5.07e-06,-0.104,
,,,5.08e-06,-0.04,
,,,5.09e-06,0.02,
,,,5.1e-06,0.108,
,,,5.11e-06,0.164,
,,,5.12e-06,0.176,
,,,5.13e-06,0.172,
,,,5.14e-06,0.12,
,,,5.15e-06,0.132,
,,,5.16e-06,0.128,
,,,5.17e-06,0.104,
,,,5.18e-06,0.04,
,,,5.19e-06,-0.02,
,,,5.2e-06,-0.108,
,,,5.21e-06,-0.168,
,,,5.22e-06,-0.18,
,,,5.23e-06,-0.168,
,,,5.24e-06,-0.116,
,,,5.25e-06,-0.136,
,,,5.26e-06,-0.132,
,,,5.27e-06,-0.104,
,,,5.28e-06,-0.044,
,,,5.29e-06,0.024,
,,,5.3e-06,0.112,
,,,5.31e-06,0.164,
,,,5.32e-06,0.176,
,,,5.33e-06,0.164,
,,,5.34e-06,0.124,
,,,5.35e-06,0.132,
,,,5.36e-06,0.128,
,,,5.37e-06,0.096,
,,,5.38e-06,0.036,
,,,5.39e-06,-0.024,
,,,5.4e-06,-0.108,
,,,5.41e-06,-0.172,
,,,5.42e-06,-0.176,
,,,5.43e-06,-0.168,
,,,5.44e-06,-0.124,
,,,5.45e-06,-0.136,
,,,5.46e-06,-0.144,
,,,5.47e-06,-0.104,
,,,5.48e-06,-0.044,
,,,5.49e-06,0.028,
,,,5.5e-06,0.108,
,,,5.51e-06,0.168,
,,,5.52e-06,0.176,
,,,5.53e-06,0.164,
,,,5.54e-06,0.12,
,,,5.55e-06,0.128,
,,,5.56e-06,0.128,
,,,5.57e-06,0.1,
,,,5.58e-06,0.04,
,,,5.59e-06,-0.024,
,,,5.6e-06,-0.116,
,,,5.61e-06,-0.172,
,,,5.62e-06,-0.168,
,,,5.63e-06,-0.172,
,,,5.64e-06,-0.128,
,,,5.65e-06,-0.136,
,,,5.66e-06,-0.136,
,,,5.67e-06,-0.1,
,,,5.68e-06,-0.044,
,,,5.69e-06,0.024,
,,,5.7e-06,0.108,
,,,5.71e-06,0.164,
,,,5.72e-06,0.176,
,,,5.73e-06,0.164,
,,,5.74e-06,0.12,
,,,5.75e-06,0.128,
,,,5.76e-06,0.132,
,,,5.77e-06,0.1,
,,,5.78e-06,0.04,
,,,5.79e-06,-0.024,
,,,5.8e-06,-0.112,
,,,5.81e-06,-0.164,
,,,5.82e-06,-0.18,
,,,5.83e-06,-0.164,
,,,5.84e-06,-0.12,
,,,5.85e-06,-0.128,
,,,5.86e-06,-0.132,
,,,5.87e-06,-0.104,
,,,5.88e-06,-0.04,
,,,5.89e-06,0.024,
,,,5.9e-06,0.108,
,,,5.91e-06,0.168,
,,,5.92e-06,0.176,
,,,5.93e-06,0.172,
,,,5.94e-06,0.124,
,,,5.95e-06,0.128,
,,,5.96e-06,0.132,
,,,5.97e-06,0.104,
,,,5.98e-06,0.036,
,,,5.99e-06,-0.028,
,,,6e-06,-0.112,
,,,6.01e-06,-0.168,
,,,6.02e-06,-0.172,
,,,6.03e-06,-0.168,
,,,6.04e-06,-0.124,
,,,6.05e-06,-0.132,
,,,6.06e-06,-0.132,
,,,6.07e-06,-0.104,
,,,6.08e-06,-0.04,
,,,6.09e-06,0.02,
,,,6.1e-06,0.104,
,,,6.11e-06,0.164,
,,,6.12e-06,0.176,
,,,6.13e-06,0.168,
,,,6.14e-06,0.116,
,,,6.15e-06,0.128,
,,,6.16e-06,0.132,
,,,6.17e-06,0.1,
,,,6.18e-06,0.04,
,,,6.19e-06,-0.028,
,,,6.2e-06,-0.112,
,,,6.21e-06,-0.168,
,,,6.22e-06,-0.172,
,,,6.23e-06,-0.164,
,,,6.24e-06,-0.12,
,,,6.25e-06,-0.128,
,,,6.26e-06,-0.132,
,,,6.27e-06,-0.096,
,,,6.28e-06,-0.044,
,,,6.29e-06,0.024,
,,,6.3e-06,0.148,
,,,6.31e-06,0.18,
,,,6.32e-06,0.156,
,,,6.33e-06,0.064,
,,,6.34e-06,-0.04,
,,,6.35e-06,-0.168,
,,,6.36e-06,-0.192,
,,,6.37e-06,-0.156,
,,,6.38e-06,-0.068,
,,,6.39e-06,0.04,
,,,6.4e-06,0.156,
,,,6.41e-06,0.192,
,,,6.42e-06,0.164,
,,,6.43e-06,0.072,
,,,6.44e-06,-0.032,
,,,6.45e-06,-0.16,
,,,6.46e-06,-0.184,
,,,6.47e-06,-0.148,
,,,6.48e-06,-0.064,
,,,6.49e-06,0.04,
,,,6.5e-06,0.152,
,,,6.51e-06,0.188,
,,,6.52e-06,0.156,
,,,6.53e-06,0.056,
,,,6.54e-06,-0.044,
,,,6.55e-06,-0.164,
,,,6.56e-06,-0.188,
,,,6.57e-06,-0.152,
,,,6.58e-06,-0.072,
,,,6.59e-06,0.036,
,,,6.6e-06,0.156,
,,,6.61e-06,0.196,
,,,6.62e-06,0.172,
,,,6.63e-06,0.072,
,,,6.64e-06,-0.036,
,,,6.65e-06,-0.168,
,,,6.66e-06,-0.196,
,,,6.67e-06,-0.16,
,,,6.68e-06,-0.072,
,,,6.69e-06,0.036,
,,,6.7e-06,0.156,
,,,6.71e-06,0.192,
,,,6.72e-06,0.172,
,,,6.73e-06,0.072,
,,,6.74e-06,-0.036,
,,,6.75e-06,-0.16,
,,,6.76e-06,-0.192,
,,,6.77e-06,-0.156,
,,,6.78e-06,-0.076,
,,,6.79e-06,0.032,
,,,6.8e-06,0.16,
,,,6.81e-06,0.196,
,,,6.82e-06,0.172,
,,,6.83e-06,0.072,
,,,6.84e-06,-0.036,
,,,6.85e-06,-0.164,
,,,6.86e-06,-0.192,
,,,6.87e-06,-0.16,
,,,6.88e-06,-0.068,
,,,6.89e-06,0.04,
,,,6.9e-06,0.16,
,,,6.91e-06,0.196,
,,,6.92e-06,0.172,
,,,6.93e-06,0.072,
,,,6.94e-06,-0.032,
,,,6.95e-06,-0.168,
,,,6.96e-06,-0.192,
,,,6.97e-06,-0.164,
,,,6.98e-06,-0.072,
,,,6.99e-06,0.036,
,,,7e-06,0.156,
,,,7.01e-06,0.196,
,,,7.02e-06,0.172,
,,,7.03e-06,0.072,
,,,7.04e-06,-0.036,
,,,7.05e-06,-0.168,
,,,7.06e-06,-0.192,
,,,7.07e-06,-0.156,
,,,7.08e-06,-0.068,
,,,7.09e-06,0.036,
,,,7.1e-06,0.156,
,,,7.11e-06,0.196,
,,,7.12e-06,0.172,
,,,7.13e-06,0.072,
,,,7.14e-06,-0.032,
,,,7.15e-06,-0.164,
,,,7.16e-06,-0.196,
,,,7.17e-06,-0.16,
,,,7.18e-06,-0.072,
,,,7.19e-06,0.032,
,,,7.2e-06,0.156,
,,,7.21e-06,0.192,
,,,7.22e-06,0.172,
,,,7.23e-06,0.072,
,,,7.24e-06,-0.036,
,,,7.25e-06,-0.172,
,,,7.26e-06,-0.192,
,,,7.27e-06,-0.16,
,,,7.28e-06,-0.076,
,,,7.29e-06,0.032,
,,,7.3e-06,0.16,
,,,7.31e-06,0.196,
,,,7.32e-06,0.172,
,,,7.33e-06,0.068,
,,,7.34e-06,-0.04,
,,,7.35e-06,-0.168,
,,,7.36e-06,-0.196,
,,,7.37e-06,-0.152,
,,,7.38e-06,-0.072,
,,,7.39e-06,0.032,
,,,7.4e-06,0.156,
,,,7.41e-06,0.196,
,,,7.42e-06,0.176,
,,,7.43e-06,0.076,
,,,7.44e-06,-0.036,
,,,7.45e-06,-0.168,
,,,7.46e-06,-0.196,
,,,7.47e-06,-0.16,
,,,7.48e-06,-0.072,
,,,7.49e-06,0.04,
,,,7.5e-06,0.156,
,,,7.51e-06,0.196,
,,,7.52e-06,0.172,
,,,7.53e-06,0.076,
,,,7.54e-06,-0.04,
,,,7.55e-06,-0.172,
,,,7.56e-06,-0.2,
,,,7.57e-06,-0.16,
,,,7.58e-06,-0.076,
,,,7.59e-06,0.036,
,,,7.6e-06,0.156,
,,,7.61e-06,0.196,
,,,7.62e-06,0.172,
,,,7.63e-06,0.068,
,,,7.64e-06,-0.036,
,,,7.65e-06,-0.168,
,,,7.66e-06,-0.196,
,,,7.67e-06,-0.16,
,,,7.68e-06,-0.072,
,,,7.69e-06,0.04,
,,,7.7e-06,0.156,
,,,7.71e-06,0.2,
,,,7.72e-06,0.168,
,,,7.73e-06,0.072,
,,,7.74e-06,-0.04,
,,,7.75e-06,-0.164,
,,,7.76e-06,-0.196,
,,,7.77e-06,-0.16,
,,,7.78e-06,-0.076,
,,,7.79e-06,0.036,
,,,7.8e-06,0.16,
,,,7.81e-06,0.2,
,,,7.82e-06,0.168,
,,,7.83e-06,0.072,
,,,7.84e-06,-0.036,
,,,7.85e-06,-0.168,
,,,7.86e-06,-0.192,
,,,7.87e-06,-0.16,
,,,7.88e-06,-0.072,
,,,7.89e-06,0.036,
,,,7.9e-06,0.16,
,,,7.91e-06,0.196,
,,,7.92e-06,0.172,
,,,7.93e-06,0.072,
,,,7.94e-06,-0.028,
,,,7.95e-06,-0.172,
,,,7.96e-06,-0.196,
,,,7.97e-06,-0.16,
,,,7.98e-06,-0.068,
,,,7.99e-06,0.036,
,,,8e-06,0.164,
,,,8.01e-06,0.192,
,,,8.02e-06,0.164,
,,,8.03e-06,0.076,
,,,8.04e-06,-0.036,
,,,8.05e-06,-0.172,
,,,8.06e-06,-0.196,
,,,8.07e-06,-0.16,
,,,8.08e-06,-0.072,
,,,8.09e-06,0.04,
,,,8.1e-06,0.156,
,,,8.11e-06,0.196,
,,,8.12e-06,0.172,
,,,8.13e-06,0.076,
,,,8.14e-06,-0.036,
,,,8.15e-06,-0.168,
,,,8.16e-06,-0.192,
,,,8.17e-06,-0.156,
,,,8.18e-06,-0.08,
,,,8.19e-06,0.032,
,,,8.2e-06,0.156,
,,,8.21e-06,0.196,
,,,8.22e-06,0.168,
,,,8.23e-06,0.072,
,,,8.24e-06,-0.04,
,,,8.25e-06,-0.168,
,,,8.26e-06,-0.196,
,,,8.27e-06,-0.164,
,,,8.28e-06,-0.076,
,,,8.29e-06,0.036,
,,,8.3e-06,0.16,
,,,8.31e-06,0.2,
,,,8.32e-06,0.168,
,,,8.33e-06,0.072,
,,,8.34e-06,-0.032,
,,,8.35e-06,-0.164,
,,,8.36e-06,-0.196,
,,,8.37e-06,-0.16,
,,,8.38e-06,-0.076,
,,,8.39e-06,0.036,
,,,8.4e-06,0.16,
,,,8.41e-06,0.196,
,,,8.42e-06,0.172,
,,,8.43e-06,0.072,
,,,8.44e-06,-0.032,
,,,8.45e-06,-0.164,
,,,8.46e-06,-0.196,
,,,8.47e-06,-0.156,
,,,8.48e-06,-0.072,
,,,8.49e-06,0.036,
,,,8.5e-06,0.152,
,,,8.51e-06,0.192,
,,,8.52e-06,0.172,
,,,8.53e-06,0.072,
,,,8.54e-06,-0.036,
,,,8.55e-06,-0.172,
,,,8.56e-06,-0.2,
,,,8.57e-06,-0.164,
,,,8.58e-06,-0.076,
,,,8.59e-06,0.032,
,,,8.6e-06,0.16,
,,,8.61e-06,0.192,
,,,8.62e-06,0.168,
,,,8.63e-06,0.068,
,,,8.64e-06,-0.04,
,,,8.65e-06,-0.164,
,,,8.66e-06,-0.2,
,,,8.67e-06,-0.16,
,,,8.68e-06,-0.076,
,,,8.69e-06,0.036,
,,,8.7e-06,0.16,
,,,8.71e-06,0.188,
,,,8.72e-06,0.172,
,,,8.73e-06,0.072,
,,,8.74e-06,-0.04,
,,,8.75e-06,-0.172,
,,,8.76e-06,-0.192,
,,,8.77e-06,-0.16,
,,,8.78e-06,-0.068,
,,,8.79e-06,0.036,
,,,8.8e-06,0.156,
,,,8.81e-06,0.196,
,,,8.82e-06,0.168,
,,,8.83e-06,0.068,
,,,8.84e-06,-0.04,
,,,8.85e-06,-0.172,
,,,8.86e-06,-0.2,
,,,8.87e-06,-0.156,
,,,8.88e-06,-0.068,
,,,8.89e-06,0.036,
,,,8.9e-06,0.16,
,,,8.91e-06,0.192,
,,,8.92e-06,0.168,
,,,8.93e-06,0.072,
,,,8.94e-06,-0.036,
,,,8.95e-06,-0.164,
,,,8.96e-06,-0.196,
,,,8.97e-06,-0.156,
,,,8.98e-06,-0.076,
,,,8.99e-06,0.036,
,,,9e-06,0.16,
,,,9.01e-06,0.196,
,,,9.02e-06,0.172,
,,,9.03e-06,0.064,
,,,9.04e-06,-0.036,
,,,9.05e-06,-0.168,
,,,9.06e-06,-0.2,
,,,9.07e-06,-0.156,
,,,9.08e-06,-0.076,
,,,9.09e-06,0.032,
,,,9.1e-06,0.152,
,,,9.11e-06,0.192,
,,,9.12e-06,0.168,
,,,9.13e-06,0.072,
,,,9.14e-06,-0.036,
,,,9.15e-06,-0.168,
,,,9.16e-06,-0.196,
,,,9.17e-06,-0.16,
,,,9.18e-06,-0.076,
,,,9.19e-06,0.036,
,,,9.2e-06,0.156,
,,,9.21e-06,0.192,
,,,9.22e-06,0.172,
,,,9.23e-06,0.072,
,,,9.24e-06,-0.036,
,,,9.25e-06,-0.168,
,,,9.26e-06,-0.196,
,,,9.27e-06,-0.156,
,,,9.28e-06,-0.076,
,,,9.29e-06,0.032,
,,,9.3e-06,0.16,
,,,9.31e-06,0.196,
,,,9.32e-06,0.168,
,,,9.33e-06,0.068,
,,,9.34e-06,-0.036,
,,,9.35e-06,-0.164,
,,,9.36e-06,-0.196,
,,,9.37e-06,-0.16,
,,,9.38e-06,-0.076,
,,,9.39e-06,0.036,
,,,9.4e-06,0.156,
,,,9.41e-06,0.192,
,,,9.42e-06,0.168,
,,,9.43e-06,0.068,
,,,9.44e-06,-0.04,
,,,9.45e-06,-0.164,
,,,9.46e-06,-0.196,
,,,9.47e-06,-0.164,
,,,9.48e-06,-0.072,
,,,9.49e-06,0.036,
,,,9.5e-06,0.156,
,,,9.51e-06,0.196,
,,,9.52e-06,0.168,
,,,9.53e-06,0.072,
,,,9.54e-06,-0.04,
,,,9.55e-06,-0.172,
,,,9.56e-06,-0.196,
,,,9.57e-06,-0.164,
,,,9.58e-06,-0.076,
,,,9.59e-06,0.032,
,,,9.6e-06,0.156,
,,,9.61e-06,0.192,
,,,9.62e-06,0.168,
,,,9.63e-06,0.068,
,,,9.64e-06,-0.04,
,,,9.65e-06,-0.168,
,,,9.66e-06,-0.2,
,,,9.67e-06,-0.152,
,,,9.68e-06,-0.072,
,,,9.69e-06,0.036,
,,,9.7e-06,0.156,
,,,9.71e-06,0.192,
,,,9.72e-06,0.172,
,,,9.73e-06,0.068,
,,,9.74e-06,-0.04,
,,,9.75e-06,-0.168,
,,,9.76e-06,-0.196,
,,,9.77e-06,-0.16,
,,,9.78e-06,-0.076,
,,,9.79e-06,0.036,
,,,9.8e-06,0.152,
,,,9.81e-06,0.192,
,,,9.82e-06,0.172,
,,,9.83e-06,0.072,
,,,9.84e-06,-0.04,
,,,9.85e-06,-0.168,
,,,9.86e-06,-0.196,
,,,9.87e-06,-0.156,
,,,9.88e-06,-0.072,
,,,9.89e-06,0.036,
,,,9.9e-06,0.156,
,,,9.91e-06,0.192,
,,,9.92e-06,0.168,
,,,9.93e-06,0.068,
,,,9.94e-06,-0.036,
,,,9.95e-06,-0.168,
