Acquisitions/CSV/10Mbps/Rigol/DS0002.CSV

Format,2.0A,
Memory Length,5000,
IntpDistance,3104,
Trigger Address,89,
Trigger Level,64.0mV,
Source,CH1,
Vertical Units,V,
Vertical Units Div,0,
Vertical Units Extend Div,13,
Label, ,
Probe Type,0,
Probe Ratio,1.000E+00,
Vertical Scale,2.000E-01,
Vertical Position,8.000E-03,
Horizontal Units,S,
Horizontal Scale,5.000E-06,
Horizontal Position,2.410E-05,
Horizontal Mode,Main,
SincET Mode,Real Time,
Sampling Period,1.000E-08,
Horizontal Old Scale,5.000E-06,
Horizontal Old Position,2.410E-05,
Firmware,V1.20,
Time,29-Sep-21 18:40:58,
Mode,Fast,
Waveform Data,
0,
-2,
0,
-2,
0,
-2,
0,
-2,
0,
-2,
0,
-2,
0,
-2,
0,
-2,
0,
-2,
-1,
-2,
-1,
-2,
0,
-2,
-1,
-2,
-1,
-2,
0,
-2,
0,
-2,
-1,
-2,
0,
-2,
0,
-2,
0,
-2,
-1,
-3,
0,
-2,
-1,
-2,
0,
-2,
0,
-2,
0,
-2,
0,
-2,
0,
-2,
0,
-2,
0,
-2,
0,
-2,
0,
-2,
0,
-2,
0,
-2,
0,
-2,
0,
-2,
0,
-2,
0,
-2,
0,
-2,
0,
-2,
0,
-2,
-2,
0,
0,
-2,
0,
-2,
-2,
10,
10,
22,
23,
1,
1,
-23,
-27,
-21,
-21,
-14,
-16,
-14,
-14,
-1,
0,
21,
25,
19,
19,
12,
14,
12,
12,
-2,
-2,
-23,
-27,
-21,
-21,
-14,
-16,
-14,
-14,
-1,
0,
21,
24,
19,
19,
12,
14,
12,
12,
-2,
-2,
-23,
-27,
-21,
-21,
-14,
-16,
-14,
-15,
-1,
0,
21,
25,
19,
19,
12,
14,
12,
12,
-2,
-2,
-23,
-27,
-21,
-21,
-14,
-16,
-14,
-14,
-1,
0,
21,
25,
19,
18,
12,
13,
12,
13,
-2,
-2,
-23,
-27,
-21,
-21,
-14,
-14,
-16,
-15,
-1,
0,
21,
24,
19,
19,
12,
14,
12,
12,
-2,
-2,
-23,
-27,
-21,
-21,
-14,
-16,
-14,
-15,
-1,
1,
21,
25,
19,
18,
12,
13,
11,
12,
-2,
-2,
-24,
-27,
-22,
-21,
-14,
-16,
-14,
-14,
0,
0,
21,
24,
19,
18,
12,
13,
12,
12,
-2,
-2,
-23,
-27,
-21,
-21,
-14,
-16,
-14,
-14,
0,
0,
21,
25,
19,
19,
12,
13,
12,
12,
-2,
-2,
-23,
-27,
-21,
-21,
-14,
-14,
-16,
-14,
-1,
0,
21,
24,
19,
19,
12,
13,
12,
12,
-2,
-2,
-23,
-27,
-21,
-21,
-14,
-16,
-14,
-14,
0,
0,
21,
24,
19,
19,
12,
14,
12,
12,
-2,
-2,
-23,
-27,
-21,
-20,
-14,
-16,
-14,
-14,
0,
0,
21,
24,
19,
19,
12,
13,
12,
13,
-2,
-3,
-23,
-27,
-21,
-21,
-14,
-16,
-14,
-14,
-1,
0,
21,
24,
19,
19,
12,
14,
12,
12,
-2,
-3,
-23,
-27,
-21,
-21,
-14,
-14,
-16,
-15,
-1,
1,
21,
25,
19,
18,
12,
13,
12,
12,
-2,
-2,
-23,
-26,
-21,
-21,
-14,
-16,
-13,
-14,
0,
0,
21,
25,
19,
18,
12,
14,
12,
12,
-2,
-2,
-23,
-27,
-21,
-21,
-14,
-14,
-16,
-15,
-1,
0,
21,
25,
19,
18,
12,
13,
12,
12,
-2,
-2,
-23,
-27,
-21,
-21,
-14,
-14,
-16,
-15,
-1,
0,
20,
25,
19,
19,
12,
14,
12,
12,
-2,
-2,
-23,
-27,
-21,
-21,
-14,
-14,
-16,
-14,
-1,
0,
21,
25,
19,
19,
12,
14,
12,
12,
-2,
-2,
-24,
-27,
-22,
-21,
-14,
-14,
-16,
-15,
0,
0,
21,
25,
19,
18,
12,
13,
12,
12,
-2,
-2,
-23,
-27,
-22,
-21,
-14,
-16,
-14,
-15,
0,
0,
21,
24,
19,
19,
12,
14,
12,
12,
-2,
-2,
-23,
-27,
-21,
-21,
-14,
-14,
-16,
-14,
0,
0,
21,
24,
19,
19,
13,
14,
12,
12,
-2,
-2,
-23,
-27,
-22,
-21,
-14,
-14,
-16,
-15,
0,
0,
20,
25,
20,
19,
12,
14,
12,
12,
-2,
-2,
-23,
-27,
-21,
-21,
-14,
-16,
-14,
-14,
0,
0,
21,
24,
19,
19,
12,
13,
12,
12,
-3,
-2,
-23,
-27,
-21,
-21,
-14,
-14,
-16,
-14,
0,
0,
20,
24,
19,
18,
12,
13,
12,
12,
-2,
-2,
-23,
-27,
-21,
-21,
-14,
-16,
-14,
-14,
-1,
0,
21,
25,
19,
19,
12,
14,
12,
13,
-2,
-2,
-23,
-27,
-21,
-21,
-15,
-16,
-14,
-15,
0,
0,
21,
24,
19,
18,
12,
14,
12,
12,
-2,
-2,
-23,
-27,
-21,
-21,
-15,
-14,
-16,
-14,
0,
0,
21,
24,
19,
19,
12,
13,
12,
12,
-2,
-2,
-23,
-27,
-21,
-21,
-15,
-14,
-16,
-15,
-1,
1,
21,
25,
19,
19,
12,
14,
12,
12,
-2,
-2,
-23,
-27,
-22,
-21,
-14,
-14,
-16,
-14,
0,
0,
21,
25,
19,
18,
12,
13,
12,
12,
-2,
-2,
-23,
-27,
-21,
-21,
-14,
-16,
-14,
-14,
0,
0,
21,
24,
19,
18,
12,
13,
12,
12,
-2,
-2,
-23,
-27,
-22,
-21,
-14,
-16,
-14,
-14,
0,
1,
21,
24,
19,
19,
12,
14,
12,
12,
-2,
-2,
-23,
-27,
-20,
-18,
11,
12,
24,
24,
1,
1,
-24,
-27,
-19,
-18,
11,
11,
24,
23,
1,
1,
-24,
-26,
-18,
-18,
11,
12,
24,
24,
1,
1,
-24,
-27,
-21,
-21,
-14,
-16,
-14,
-14,
-1,
0,
21,
25,
17,
17,
-13,
-14,
-27,
-26,
-4,
-3,
21,
24,
18,
18,
12,
14,
12,
12,
-2,
-2,
-23,
-27,
-19,
-18,
11,
12,
24,
24,
1,
1,
-24,
-27,
-20,
-20,
-14,
-16,
-13,
-14,
-1,
0,
21,
25,
17,
16,
-14,
-13,
-26,
-26,
-4,
-3,
21,
24,
18,
18,
12,
13,
12,
12,
-2,
-2,
-23,
-27,
-20,
-18,
11,
12,
24,
24,
1,
1,
-23,
-27,
-20,
-20,
-14,
-16,
-14,
-15,
-1,
0,
21,
24,
17,
16,
-13,
-13,
-26,
-26,
-4,
-3,
21,
24,
18,
18,
12,
14,
11,
12,
-2,
-2,
-23,
-27,
-20,
-18,
11,
12,
24,
24,
1,
1,
-24,
-27,
-20,
-20,
-14,
-14,
-16,
-14,
0,
0,
21,
25,
17,
17,
-13,
-13,
-27,
-26,
-5,
-3,
21,
24,
16,
15,
-13,
-13,
-26,
-26,
-4,
-3,
21,
24,
16,
16,
-13,
-13,
-27,
-26,
-4,
-3,
21,
25,
16,
15,
-14,
-14,
-27,
-26,
-4,
-3,
22,
24,
17,
15,
-13,
-14,
-27,
-26,
-4,
-3,
22,
24,
16,
16,
-14,
-14,
-27,
-26,
-4,
-3,
21,
24,
17,
16,
-13,
-13,
-27,
-26,
-4,
-3,
21,
24,
16,
15,
-13,
-13,
-27,
-26,
-4,
-3,
22,
25,
16,
16,
-14,
-14,
-26,
-26,
-4,
-3,
22,
24,
18,
18,
12,
13,
12,
12,
-2,
-2,
-23,
-27,
-22,
-21,
-14,
-16,
-14,
-14,
0,
1,
21,
25,
18,
17,
-13,
-14,
-27,
-26,
-4,
-3,
21,
24,
16,
16,
-14,
-13,
-26,
-26,
-4,
-3,
21,
24,
16,
15,
-13,
-13,
-27,
-26,
-4,
-3,
22,
25,
16,
16,
-14,
-13,
-27,
-26,
-4,
-3,
21,
24,
16,
16,
-13,
-13,
-26,
-25,
-4,
-3,
22,
24,
16,
16,
-14,
-13,
-26,
-26,
-4,
-3,
21,
24,
16,
15,
-13,
-14,
-26,
-26,
-4,
-3,
21,
24,
16,
16,
-13,
-13,
-26,
-26,
-4,
-3,
21,
24,
16,
16,
-14,
-13,
-26,
-26,
-4,
-3,
21,
24,
16,
16,
-14,
-13,
-26,
-26,
-4,
-3,
22,
24,
16,
16,
-14,
-13,
-26,
-26,
-4,
-3,
21,
24,
17,
16,
-14,
-13,
-26,
-26,
-4,
-3,
22,
24,
16,
16,
-14,
-14,
-27,
-26,
-4,
-3,
21,
24,
17,
16,
-13,
-13,
-26,
-26,
-4,
-3,
21,
24,
16,
15,
-13,
-14,
-26,
-26,
-4,
-3,
21,
24,
18,
18,
12,
13,
12,
12,
-2,
-2,
-23,
-27,
-21,
-21,
-14,
-14,
-16,
-14,
-1,
0,
21,
25,
17,
17,
-14,
-14,
-27,
-26,
-4,
-3,
21,
24,
16,
16,
-13,
-14,
-26,
-26,
-4,
-3,
21,
24,
17,
15,
-13,
-13,
-26,
-26,
-4,
-2,
22,
25,
16,
16,
-13,
-13,
-27,
-26,
-4,
-3,
21,
24,
16,
15,
-13,
-13,
-27,
-26,
-4,
-3,
21,
24,
17,
16,
-13,
-13,
-26,
-26,
-4,
-3,
22,
24,
17,
16,
-14,
-14,
-26,
-25,
-4,
-3,
22,
24,
16,
16,
-13,
-13,
-26,
-26,
-4,
-3,
21,
24,
16,
16,
-14,
-14,
-26,
-26,
-4,
-3,
22,
24,
16,
16,
-14,
-14,
-26,
-26,
-4,
-3,
22,
24,
18,
18,
12,
14,
12,
12,
-2,
-2,
-24,
-27,
-21,
-21,
-14,
-16,
-14,
-14,
0,
1,
21,
24,
19,
19,
12,
13,
12,
12,
-2,
-2,
-23,
-27,
-21,
-21,
-14,
-16,
-13,
-14,
0,
0,
21,
24,
17,
16,
-13,
-13,
-26,
-26,
-4,
-3,
22,
24,
19,
18,
13,
14,
12,
12,
-2,
-2,
-24,
-27,
-19,
-18,
11,
12,
24,
24,
1,
1,
-24,
-26,
-20,
-20,
-15,
-14,
-16,
-14,
0,
1,
21,
24,
18,
16,
-13,
-13,
-27,
-26,
-4,
-3,
21,
24,
17,
16,
-14,
-14,
-26,
-26,
-4,
-3,
21,
24,
18,
18,
12,
14,
12,
12,
-2,
-3,
-23,
-27,
-19,
-18,
11,
11,
24,
23,
1,
1,
-24,
-26,
-20,
-20,
-14,
-16,
-14,
-14,
0,
1,
21,
24,
19,
18,
12,
13,
12,
12,
-2,
-2,
-24,
-27,
-20,
-18,
11,
12,
24,
23,
1,
1,
-24,
-27,
-19,
-17,
11,
12,
24,
23,
1,
0,
-23,
-27,
-19,
-18,
11,
12,
24,
24,
1,
1,
-24,
-27,
-19,
-18,
11,
12,
24,
24,
1,
0,
-24,
-26,
-18,
-18,
11,
12,
24,
24,
1,
1,
-24,
-27,
-19,
-18,
11,
12,
24,
23,
1,
1,
-24,
-26,
-19,
-18,
11,
12,
24,
24,
1,
1,
-23,
-26,
-21,
-20,
-14,
-16,
-14,
-14,
-1,
0,
21,
25,
17,
16,
-13,
-13,
-27,
-26,
-4,
-3,
21,
24,
18,
18,
12,
13,
12,
12,
-2,
-2,
-23,
-27,
-21,
-21,
-14,
-16,
-14,
-14,
-1,
0,
21,
25,
19,
19,
12,
14,
12,
12,
-2,
-2,
-24,
-27,
-20,
-18,
11,
12,
24,
23,
2,
1,
-24,
-27,
-19,
-18,
11,
12,
25,
24,
1,
1,
-24,
-27,
-19,
-17,
11,
12,
24,
23,
1,
1,
-24,
-27,
-19,
-18,
11,
12,
24,
24,
1,
1,
-24,
-26,
-21,
-21,
-14,
-16,
-14,
-14,
-1,
0,
21,
25,
16,
17,
-13,
-13,
-26,
-26,
-4,
-3,
21,
24,
16,
16,
-14,
-14,
-26,
-26,
-4,
-3,
22,
25,
17,
16,
-13,
-14,
-26,
-26,
-4,
-3,
22,
24,
18,
18,
12,
13,
12,
12,
-3,
-2,
-23,
-27,
-19,
-18,
11,
12,
24,
24,
1,
1,
-24,
-27,
-19,
-18,
11,
12,
25,
24,
1,
1,
-24,
-27,
-19,
-18,
10,
11,
24,
24,
2,
2,
-24,
-27,
-20,
-20,
-15,
-14,
-16,
-14,
0,
1,
21,
25,
19,
19,
12,
14,
12,
12,
-2,
-3,
-24,
-27,
-19,
-18,
11,
12,
24,
23,
1,
1,
-24,
-26,
-19,
-18,
11,
11,
24,
24,
1,
0,
-23,
-26,
-19,
-18,
11,
12,
24,
23,
1,
1,
-24,
-27,
-21,
-20,
-14,
-16,
-14,
-14,
-1,
0,
22,
25,
19,
18,
12,
14,
12,
12,
-3,
-3,
-23,
-27,
-20,
-18,
11,
11,
24,
24,
1,
1,
-24,
-27,
-20,
-20,
-14,
-16,
-14,
-14,
-1,
1,
21,
25,
16,
16,
-14,
-14,
-27,
-27,
-4,
-3,
21,
24,
16,
15,
-14,
-13,
-27,
-26,
-4,
-3,
21,
24,
16,
15,
-13,
-13,
-27,
-26,
-5,
-3,
22,
24,
18,
18,
12,
14,
12,
12,
-3,
-2,
-24,
-27,
-19,
-18,
10,
12,
24,
24,
1,
1,
-24,
-27,
-20,
-20,
-15,
-14,
-16,
-14,
0,
1,
21,
24,
19,
19,
12,
14,
12,
12,
-2,
-3,
-23,
-27,
-19,
-18,
11,
12,
24,
24,
1,
0,
-24,
-27,
-19,
-18,
11,
12,
24,
23,
1,
1,
-23,
-26,
-21,
-20,
-14,
-14,
-16,
-14,
0,
0,
21,
25,
19,
18,
12,
13,
12,
11,
-2,
-2,
-23,
-27,
-20,
-19,
11,
12,
24,
23,
1,
1,
-24,
-26,
-21,
-20,
-14,
-16,
-14,
-14,
-1,
0,
22,
25,
16,
16,
-14,
-13,
-27,
-26,
-4,
-3,
22,
24,
16,
15,
-14,
-14,
-26,
-26,
-4,
-3,
21,
25,
16,
16,
-14,
-13,
-26,
-26,
-4,
-3,
22,
24,
16,
15,
-13,
-14,
-26,
-26,
-4,
-2,
22,
24,
18,
18,
12,
13,
12,
12,
-2,
-2,
-24,
-27,
-19,
-19,
11,
11,
24,
24,
1,
1,
-23,
-27,
-21,
-20,
-14,
-16,
-14,
-14,
-1,
1,
21,
25,
16,
16,
-14,
-13,
-26,
-26,
-4,
-3,
21,
24,
16,
16,
-14,
-13,
-26,
-26,
-4,
-3,
22,
24,
16,
16,
-13,
-13,
-27,
-26,
-4,
-3,
22,
24,
18,
18,
13,
13,
12,
12,
-2,
-3,
-24,
-27,
-21,
-21,
-14,
-16,
-14,
-14,
0,
0,
21,
25,
17,
16,
-13,
-13,
-27,
-26,
-4,
-3,
21,
24,
16,
16,
-13,
-13,
-26,
-26,
-4,
-2,
22,
24,
16,
15,
-14,
-14,
-26,
-26,
-4,
-3,
21,
24,
16,
16,
-14,
-14,
-26,
-26,
-4,
-3,
22,
24,
18,
18,
12,
13,
12,
12,
-3,
-3,
-24,
-27,
-20,
-18,
11,
12,
25,
24,
1,
2,
-24,
-27,
-21,
-20,
-14,
-14,
-16,
-14,
0,
1,
21,
24,
17,
16,
-14,
-14,
-26,
-26,
-4,
-2,
21,
24,
16,
16,
-14,
-14,
-26,
-26,
-4,
-3,
22,
24,
18,
18,
13,
14,
12,
12,
-2,
-2,
-23,
-27,
-21,
-21,
-14,
-16,
-14,
-14,
0,
1,
21,
25,
17,
16,
-14,
-14,
-27,
-26,
-4,
-3,
22,
24,
18,
18,
12,
13,
12,
12,
-2,
-3,
-23,
-27,
-21,
-21,
-14,
-16,
-14,
-14,
-1,
0,
21,
25,
19,
18,
12,
14,
12,
12,
-2,
-2,
-24,
-27,
-21,
-21,
-15,
-16,
-14,
-14,
-1,
1,
21,
25,
17,
16,
-14,
-14,
-27,
-26,
-4,
-3,
22,
24,
18,
18,
12,
14,
12,
12,
-2,
-2,
-23,
-27,
-19,
-17,
11,
12,
24,
24,
1,
0,
-24,
-26,
-20,
-20,
-14,
-14,
-16,
-14,
0,
1,
21,
25,
17,
16,
-14,
-14,
-27,
-26,
-4,
-3,
21,
24,
16,
16,
-13,
-13,
-27,
-26,
-4,
-3,
21,
24,
16,
15,
-14,
-14,
-27,
-26,
-4,
-3,
22,
24,
16,
15,
-14,
-14,
-27,
-26,
-3,
-2,
21,
24,
16,
15,
-14,
-14,
-26,
-26,
-4,
-3,
21,
24,
16,
15,
-13,
-13,
-27,
-26,
-3,
-2,
21,
24,
16,
15,
-14,
-14,
-27,
-26,
-4,
-3,
22,
24,
18,
18,
12,
13,
12,
12,
-3,
-2,
-23,
-27,
-19,
-18,
12,
12,
24,
23,
1,
0,
-24,
-27,
-18,
-17,
11,
11,
24,
23,
1,
1,
-24,
-27,
-20,
-20,
-15,
-14,
-16,
-14,
0,
0,
21,
24,
17,
16,
-14,
-14,
-26,
-26,
-4,
-2,
22,
24,
18,
18,
12,
14,
12,
12,
-3,
-3,
-23,
-27,
-19,
-18,
11,
12,
24,
23,
1,
0,
-24,
-26,
-21,
-20,
-14,
-16,
-14,
-14,
0,
0,
21,
25,
19,
19,
12,
13,
12,
12,
-2,
-2,
-24,
-28,
-21,
-21,
-14,
-16,
-14,
-14,
0,
1,
21,
25,
18,
16,
-14,
-14,
-27,
-26,
-4,
-3,
22,
24,
16,
16,
-13,
-14,
-26,
-26,
-4,
-2,
21,
24,
18,
18,
12,
14,
12,
12,
-2,
-3,
-23,
-27,
-22,
-21,
-14,
-14,
-16,
-14,
0,
1,
21,
25,
17,
16,
-14,
-14,
-27,
-26,
-4,
-2,
22,
24,
16,
15,
-14,
-13,
-27,
-26,
-4,
-2,
21,
24,
18,
18,
12,
13,
12,
12,
-2,
-3,
-24,
-27,
-21,
-21,
-14,
-16,
-13,
-14,
0,
0,
21,
24,
17,
16,
-14,
-14,
-26,
-26,
-4,
-2,
22,
24,
16,
15,
-14,
-14,
-26,
-26,
-4,
-2,
22,
24,
16,
16,
-14,
-13,
-26,
-26,
-4,
-2,
22,
24,
16,
15,
-14,
-14,
-27,
-26,
-4,
-2,
21,
24,
16,
16,
-14,
-14,
-27,
-25,
-4,
-3,
21,
24,
17,
16,
-14,
-14,
-26,
-26,
-4,
-3,
22,
24,
16,
16,
-14,
-14,
-27,
-25,
-3,
-2,
21,
24,
18,
18,
12,
14,
12,
12,
-2,
-3,
-24,
-27,
-19,
-18,
11,
12,
25,
24,
1,
1,
-24,
-27,
-18,
-17,
11,
12,
24,
23,
1,
1,
-24,
-27,
-18,
-17,
11,
12,
24,
23,
1,
1,
-24,
-27,
-19,
-18,
11,
12,
25,
23,
1,
0,
-24,
-26,
-18,
-17,
11,
12,
24,
24,
1,
1,
-24,
-26,
-18,
-17,
11,
12,
24,
23,
1,
0,
-23,
-26,
-20,
-20,
-14,
-14,
-16,
-14,
-1,
0,
21,
25,
16,
16,
-14,
-14,
-26,
-26,
-4,
-3,
22,
24,
16,
15,
-14,
-13,
-26,
-26,
-4,
-3,
21,
24,
16,
15,
-14,
-14,
-27,
-26,
-4,
-3,
22,
24,
16,
16,
-13,
-14,
-27,
-26,
-4,
-2,
21,
24,
16,
16,
-13,
-14,
-27,
-26,
-4,
-3,
22,
24,
16,
15,
-14,
-14,
-27,
-26,
-4,
-3,
21,
24,
18,
19,
12,
14,
12,
12,
-3,
-2,
-24,
-27,
-21,
-20,
-14,
-16,
-14,
-14,
0,
1,
21,
25,
17,
16,
-14,
-14,
-26,
-26,
-4,
-2,
21,
24,
16,
15,
-14,
-14,
-27,
-26,
-4,
-2,
21,
24,
16,
15,
-14,
-14,
-26,
-26,
-4,
-3,
22,
24,
16,
15,
-14,
-14,
-27,
-26,
-3,
-2,
22,
24,
16,
16,
-14,
-14,
-26,
-26,
-4,
-3,
22,
24,
16,
16,
-14,
-14,
-27,
-26,
-3,
-2,
22,
24,
16,
16,
-14,
-14,
-26,
-26,
-4,
-2,
22,
24,
16,
16,
-14,
-13,
-26,
-26,
-3,
-2,
21,
24,
16,
15,
-14,
-14,
-26,
-26,
-4,
-2,
21,
24,
16,
15,
-13,
-14,
-26,
-26,
-3,
-2,
21,
24,
16,
16,
-14,
-14,
-26,
-26,
-4,
-3,
21,
24,
16,
15,
-14,
-14,
-27,
-26,
-4,
-2,
21,
24,
16,
16,
-13,
-13,
-26,
-26,
-4,
-2,
21,
24,
16,
15,
-15,
-14,
-26,
-26,
-3,
-2,
21,
24,
16,
15,
-14,
-13,
-26,
-25,
-3,
-2,
22,
24,
16,
15,
-14,
-14,
-26,
-26,
-3,
-2,
21,
24,
16,
16,
-14,
-13,
-26,
-25,
-3,
-2,
21,
24,
16,
16,
-14,
-14,
-27,
-26,
-4,
-2,
22,
24,
16,
15,
-13,
-13,
-27,
-26,
-3,
-2,
22,
24,
16,
16,
-14,
-14,
-26,
-26,
-4,
-2,
21,
24,
16,
15,
-14,
-13,
-27,
-25,
-4,
-2,
22,
24,
16,
15,
-14,
-14,
-27,
-26,
-4,
-2,
22,
24,
16,
16,
-14,
-14,
-27,
-26,
-3,
-2,
21,
24,
16,
15,
-14,
-13,
-27,
-26,
-4,
-3,
21,
24,
16,
15,
-14,
-14,
-26,
-26,
-4,
-2,
21,
24,
16,
15,
-14,
-14,
-26,
-26,
-4,
-2,
21,
24,
16,
16,
-14,
-14,
-26,
-26,
-4,
-3,
21,
24,
16,
15,
-14,
-13,
-26,
-26,
-4,
-3,
22,
24,
16,
15,
-14,
-14,
-26,
-26,
-4,
-2,
21,
24,
16,
16,
-14,
-14,
-26,
-26,
-3,
-2,
21,
24,
16,
15,
-14,
-13,
-26,
-26,
-4,
-2,
22,
24,
16,
16,
-14,
-13,
-26,
-26,
-4,
-2,
21,
24,
16,
15,
-14,
-14,
-26,
-26,
-4,
-2,
22,
24,
16,
15,
-14,
-14,
-27,
-26,
-3,
-2,
21,
24,
16,
15,
-14,
-14,
-27,
-26,
-4,
-2,
21,
24,
16,
15,
-14,
-13,
-26,
-25,
-4,
-2,
21,
24,
16,
15,
-14,
-14,
-26,
-26,
-3,
-2,
21,
24,
16,
15,
-14,
-14,
-26,
-25,
-4,
-2,
21,
24,
16,
15,
-14,
-14,
-26,
-26,
-4,
-2,
22,
24,
16,
15,
-14,
-13,
-26,
-26,
-4,
-2,
22,
24,
16,
16,
-14,
-14,
-26,
-26,
-3,
-2,
21,
24,
16,
15,
-14,
-14,
-26,
-26,
-4,
-2,
22,
24,
16,
15,
-14,
-14,
-26,
-26,
-4,
-2,
21,
24,
16,
16,
-14,
-13,
-27,
-26,
-4,
-2,
21,
24,
16,
15,
-14,
-14,
-26,
-26,
-3,
-2,
21,
24,
16,
15,
-14,
-14,
-27,
-26,
-4,
-3,
21,
24,
16,
15,
-14,
-14,
-26,
-26,
-4,
-2,
21,
24,
18,
18,
12,
13,
12,
12,
-2,
-2,
-24,
-27,
-21,
-21,
-15,
-16,
-14,
-14,
0,
1,
21,
24,
19,
18,
12,
14,
12,
12,
-2,
-2,
-24,
-28,
-21,
-21,
-15,
-17,
-14,
-15,
0,
0,
21,
24,
19,
18,
12,
14,
12,
12,
-2,
-2,
-24,
-27,
-19,
-18,
11,
12,
24,
23,
1,
1,
-24,
-27,
-20,
-20,
-14,
-14,
-16,
-15,
0,
0,
21,
25,
17,
16,
-14,
-13,
-27,
-26,
-4,
-3,
21,
24,
18,
18,
12,
13,
12,
12,
-3,
-2,
-24,
-27,
-21,
-21,
-14,
-14,
-16,
-14,
-1,
0,
21,
25,
17,
16,
-14,
-14,
-27,
-26,
-4,
-3,
21,
24,
16,
16,
-14,
-14,
-27,
-26,
-4,
-3,
22,
24,
16,
16,
-14,
-13,
-27,
-26,
-4,
-2,
22,
24,
18,
18,
12,
13,
12,
12,
-2,
-3,
-24,
-27,
-21,
-21,
-14,
-16,
-14,
-15,
0,
1,
21,
24,
17,
16,
-14,
-14,
-26,
-26,
-3,
-3,
22,
24,
18,
18,
12,
13,
12,
12,
-2,
-2,
-24,
-28,
-19,
-18,
11,
12,
24,
24,
1,
0,
-24,
-27,
-20,
-20,
-14,
-14,
-16,
-14,
0,
0,
21,
25,
17,
16,
-13,
-13,
-26,
-26,
-4,
-2,
22,
24,
18,
18,
12,
13,
12,
12,
-2,
-3,
-23,
-27,
-19,
-18,
11,
12,
24,
23,
1,
0,
-24,
-26,
-20,
-20,
-14,
-16,
-14,
-14,
0,
1,
22,
24,
19,
18,
12,
14,
12,
11,
-2,
-2,
-24,
-27,
-19,
-18,
11,
12,
25,
23,
1,
1,
-24,
-27,
-18,
-17,
12,
12,
24,
24,
1,
0,
-24,
-26,
-19,
-17,
11,
12,
24,
23,
1,
0,
-24,
-26,
-18,
-17,
11,
12,
24,
23,
1,
1,
-24,
-26,
-21,
-21,
-14,
-14,
-16,
-14,
0,
1,
21,
25,
19,
18,
12,
14,
12,
12,
-2,
-2,
-23,
-27,
-19,
-18,
11,
12,
24,
24,
0,
0,
-24,
-27,
-20,
-21,
-14,
-14,
-16,
-14,
0,
0,
21,
25,
17,
16,
-14,
-13,
-27,
-26,
-4,
-2,
22,
24,
18,
18,
12,
14,
12,
12,
-3,
-2,
-23,
-27,
-19,
-18,
11,
12,
24,
24,
1,
0,
-24,
-26,
-18,
-17,
11,
12,
24,
23,
1,
1,
-24,
-27,
-19,
-17,
11,
12,
24,
24,
0,
0,
-24,
-27,
-18,
-17,
11,
12,
24,
24,
1,
1,
-24,
-27,
-19,
-17,
11,
12,
24,
24,
1,
0,
-24,
-26,
-18,
-18,
12,
12,
24,
23,
0,
0,
-24,
-26,
-20,
-20,
-14,
-16,
-14,
-15,
0,
0,
21,
25,
17,
16,
-14,
-14,
-26,
-26,
-4,
-3,
22,
25,
18,
17,
12,
14,
12,
12,
-3,
-3,
-24,
-27,
-19,
-18,
11,
12,
24,
23,
0,
0,
-24,
-26,
-18,
-17,
11,
11,
24,
23,
1,
0,
-24,
-26,
-20,
-20,
-15,
-16,
-14,
-14,
0,
1,
21,
25,
19,
18,
12,
14,
12,
12,
-3,
-3,
-23,
-27,
-21,
-20,
-14,
-16,
-14,
-14,
0,
0,
22,
25,
19,
18,
12,
14,
12,
12,
-3,
-3,
-23,
-27,
-19,
-18,
11,
12,
24,
24,
1,
0,
-24,
-27,
-18,
-17,
11,
12,
24,
23,
0,
0,
-24,
-27,
-19,
-17,
11,
12,
24,
23,
1,
0,
-24,
-27,
-18,
-17,
11,
12,
24,
24,
1,
0,
-24,
-26,
-20,
-21,
-14,
-14,
-16,
-14,
-1,
1,
21,
25,
16,
16,
-14,
-14,
-26,
-26,
-4,
-3,
21,
25,
18,
18,
12,
14,
12,
12,
-3,
-3,
-23,
-27,
-21,
-21,
-14,
-14,
-16,
-14,
0,
1,
22,
25,
17,
16,
-14,
-14,
-27,
-27,
-4,
-2,
21,
24,
16,
15,
-14,
-14,
-27,
-26,
-4,
-3,
21,
24,
18,
18,
12,
13,
12,
11,
-2,
-2,
-24,
-27,
-19,
-18,
11,
12,
24,
23,
0,
1,
-24,
-27,
-19,
-18,
11,
12,
24,
23,
1,
0,
-24,
-27,
-21,
-20,
-15,
-16,
-14,
-14,
0,
0,
21,
25,
19,
18,
12,
14,
12,
12,
-2,
-3,
-23,
-27,
-19,
-18,
11,
12,
24,
24,
1,
1,
-24,
-26,
-18,
-17,
11,
12,
24,
24,
1,
0,
-24,
-26,
-18,
-17,
12,
13,
24,
23,
1,
0,
-24,
-27,
-18,
-17,
11,
12,
24,
23,
0,
0,
-24,
-26,
-18,
-17,
11,
12,
24,
23,
0,
0,
-24,
-26,
-18,
-17,
11,
12,
24,
23,
1,
0,
-24,
-26,
-18,
-17,
11,
12,
24,
23,
1,
0,
-24,
-26,
-18,
-17,
11,
12,
24,
23,
1,
0,
-24,
-26,
-20,
-20,
-14,
-14,
-16,
-15,
-1,
0,
21,
25,
19,
18,
12,
14,
11,
12,
-3,
-3,
-23,
-27,
-21,
-21,
-14,
-16,
-14,
-14,
-1,
0,
21,
25,
16,
16,
-14,
-14,
-27,
-26,
-4,
-2,
21,
24,
15,
15,
-14,
-14,
-27,
-26,
-3,
-2,
21,
24,
16,
16,
-14,
-14,
-26,
-26,
-3,
-2,
22,
25,
16,
15,
-14,
-14,
-27,
-26,
-4,
-2,
22,
24,
16,
15,
-14,
-13,
-26,
-26,
-3,
-3,
21,
24,
16,
15,
-14,
-14,
-26,
-26,
-3,
-2,
21,
24,
16,
15,
-14,
-14,
-27,
-26,
-4,
-2,
22,
24,
16,
15,
-14,
-14,
-26,
-26,
-4,
-2,
21,
24,
16,
15,
-14,
-14,
-26,
-26,
-4,
-2,
22,
24,
16,
16,
-14,
-14,
-26,
-26,
-3,
-2,
22,
24,
16,
15,
-14,
-14,
-26,
-26,
-4,
-2,
21,
24,
16,
15,
-14,
-14,
-26,
-26,
-3,
-2,
21,
24,
16,
15,
-14,
-14,
-26,
-26,
-3,
-2,
21,
24,
16,
15,
-14,
-14,
-26,
-26,
-4,
-2,
21,
24,
16,
15,
-14,
-14,
-26,
-26,
-3,
-2,
22,
24,
16,
15,
-14,
-14,
-26,
-26,
-3,
-2,
22,
24,
16,
15,
-14,
-14,
-26,
-26,
-3,
-2,
22,
24,
16,
15,
-14,
-14,
-27,
-26,
-3,
-2,
22,
24,
16,
16,
-14,
-13,
-26,
-25,
-3,
-2,
22,
24,
16,
15,
-14,
-14,
-27,
-25,
-3,
-2,
21,
24,
15,
15,
-14,
-14,
-26,
-25,
-3,
-3,
22,
24,
16,
15,
-14,
-14,
-26,
-26,
-3,
-2,
22,
24,
16,
15,
-14,
-14,
-26,
-25,
-3,
-2,
22,
24,
16,
15,
-14,
-14,
-26,
-26,
-3,
-2,
21,
24,
16,
16,
-14,
-14,
-27,
-26,
-3,
-2,
22,
24,
16,
15,
-14,
-14,
-26,
-26,
-3,
-2,
21,
24,
16,
15,
-14,
-14,
-26,
-26,
-3,
-2,
22,
24,
16,
15,
-14,
-14,
-26,
-26,
-3,
-2,
21,
24,
16,
15,
-14,
-14,
-26,
-26,
-3,
-2,
21,
24,
16,
15,
-14,
-14,
-27,
-26,
-3,
-2,
21,
24,
16,
15,
-14,
-14,
-27,
-26,
-3,
-2,
21,
24,
16,
15,
-15,
-14,
-26,
-26,
-3,
-2,
22,
24,
15,
15,
-14,
-14,
-26,
-26,
-4,
-3,
22,
24,
16,
15,
-15,
-14,
-26,
-25,
-4,
-2,
22,
24,
16,
15,
-14,
-14,
-26,
-26,
-4,
-2,
21,
24,
16,
16,
-14,
-14,
-26,
-26,
-4,
-2,
22,
24,
15,
15,
-14,
-14,
-27,
-26,
-3,
-2,
22,
24,
16,
15,
-14,
-14,
-26,
-26,
-4,
-2,
21,
24,
16,
15,
-15,
-14,
-26,
-25,
-3,
-2,
21,
24,
16,
15,
-14,
-14,
-26,
-26,
-3,
-2,
22,
24,
16,
15,
-14,
-14,
-27,
-26,
-4,
-2,
21,
24,
16,
15,
-14,
-14,
-26,
-26,
-4,
-2,
21,
24,
16,
15,
-14,
-14,
-26,
-26,
-3,
-2,
22,
24,
16,
15,
-14,
-14,
-27,
-25,
-3,
-2,
21,
24,
16,
15,
-14,
-14,
-26,
-26,
-3,
-1,
22,
24,
16,
15,
-14,
-13,
-26,
-26,
-3,
-2,
22,
24,
16,
15,
-14,
-14,
-26,
-26,
-4,
-2,
22,
24,
15,
15,
-14,
-14,
-26,
-26,
-3,
-2,
22,
24,
15,
15,
-14,
-14,
-27,
-26,
-4,
-2,
22,
24,
15,
15,
-14,
-14,
-26,
-26,
-3,
-2,
21,
24,
16,
15,
-14,
-14,
-26,
-26,
-3,
-2,
22,
24,
16,
15,
-14,
-14,
-26,
-26,
-3,
-2,
22,
24,
16,
15,
-15,
-14,
-26,
-26,
-3,
-2,
22,
24,
16,
15,
-14,
-14,
-26,
-26,
-3,
-2,
22,
24,
15,
15,
-14,
-14,
-26,
-26,
-3,
-2,
22,
24,
15,
15,
-14,
-14,
-26,
-26,
-4,
-2,
21,
24,
16,
15,
-14,
-14,
-26,
-26,
-3,
-2,
21,
24,
16,
15,
-14,
-14,
-26,
-25,
-4,
-2,
21,
24,
15,
14,
-14,
-14,
-26,
-26,
-4,
-2,
22,
24,
16,
15,
-15,
-14,
-26,
-26,
-3,
-2,
21,
24,
15,
15,
-14,
-14,
-26,
-26,
-4,
-2,
21,
24,
15,
15,
-13,
-14,
-27,
-25,
-3,
-2,
22,
24,
16,
15,
-14,
-14,
-26,
-26,
-3,
-2,
22,
24,
16,
15,
-14,
-14,
-26,
-26,
-4,
-2,
22,
