Acquisitions/CSV/10Mbps/Rigol/DS0006.CSV

Format,2.0A,
Memory Length,5000,
IntpDistance,124,
Trigger Address,89,
Trigger Level,64.0mV,
Source,CH1,
Vertical Units,V,
Vertical Units Div,0,
Vertical Units Extend Div,13,
Label, ,
Probe Type,0,
Probe Ratio,1.000E+00,
Vertical Scale,2.000E-01,
Vertical Position,8.000E-03,
Horizontal Units,S,
Horizontal Scale,5.000E-06,
Horizontal Position,2.410E-05,
Horizontal Mode,Main,
SincET Mode,Real Time,
Sampling Period,1.000E-08,
Horizontal Old Scale,5.000E-06,
Horizontal Old Position,2.410E-05,
Firmware,V1.20,
Time,29-Sep-21 19:32:12,
Mode,Fast,
Waveform Data,
0,
-2,
0,
-2,
0,
-2,
-1,
-2,
-1,
-2,
0,
-2,
0,
-2,
0,
-2,
0,
-2,
-3,
0,
0,
-2,
0,
-2,
0,
-2,
0,
-2,
0,
-2,
0,
-2,
-1,
-2,
0,
-2,
-1,
-2,
0,
-2,
0,
-2,
0,
-2,
0,
-2,
0,
-2,
0,
-2,
-1,
-2,
-1,
-2,
-1,
-2,
-1,
-2,
0,
-2,
0,
-2,
0,
-2,
0,
-2,
0,
-2,
0,
-2,
0,
-2,
0,
-2,
-2,
0,
0,
-2,
0,
-2,
0,
-2,
0,
-2,
0,
-2,
0,
-2,
-2,
10,
10,
22,
22,
3,
2,
-23,
-22,
-27,
-21,
-14,
-16,
-14,
-15,
-2,
-1,
20,
25,
19,
19,
12,
13,
11,
12,
-1,
-1,
-23,
-22,
-27,
-22,
-15,
-14,
-16,
-15,
-2,
-1,
20,
25,
19,
19,
12,
14,
12,
12,
-1,
-1,
-23,
-22,
-27,
-21,
-14,
-16,
-14,
-15,
-2,
-1,
20,
25,
19,
19,
12,
14,
12,
12,
-1,
-2,
-23,
-22,
-27,
-21,
-14,
-16,
-14,
-15,
-2,
-1,
20,
24,
19,
19,
12,
14,
12,
13,
-1,
-1,
-23,
-22,
-27,
-22,
-14,
-14,
-16,
-15,
-2,
0,
20,
25,
19,
19,
12,
14,
12,
12,
-1,
-1,
-23,
-22,
-27,
-22,
-14,
-14,
-16,
-14,
-2,
0,
20,
24,
19,
19,
12,
13,
12,
12,
-2,
-1,
-23,
-22,
-27,
-22,
-14,
-14,
-16,
-14,
-2,
-1,
20,
24,
20,
19,
12,
14,
12,
12,
-1,
-2,
-23,
-22,
-27,
-21,
-14,
-14,
-16,
-15,
-2,
-1,
20,
24,
19,
19,
12,
13,
12,
12,
-2,
-1,
-23,
-22,
-27,
-22,
-14,
-16,
-14,
-15,
-2,
-2,
21,
24,
19,
19,
12,
14,
12,
12,
-1,
-1,
-23,
-22,
-27,
-21,
-14,
-14,
-16,
-14,
-1,
0,
20,
25,
19,
19,
13,
14,
12,
12,
-2,
-2,
-23,
-27,
-22,
-21,
-14,
-16,
-14,
-15,
-2,
0,
20,
24,
19,
19,
12,
14,
12,
12,
-1,
-1,
-23,
-22,
-27,
-22,
-14,
-14,
-16,
-15,
-2,
-1,
20,
24,
19,
19,
12,
14,
12,
12,
-1,
-1,
-23,
-22,
-27,
-22,
-14,
-16,
-14,
-15,
-1,
-1,
20,
25,
19,
19,
12,
14,
12,
12,
-2,
-1,
-23,
-27,
-22,
-21,
-15,
-16,
-14,
-15,
-1,
0,
20,
25,
19,
19,
12,
13,
12,
12,
-1,
-1,
-23,
-22,
-27,
-22,
-15,
-16,
-14,
-14,
-2,
-1,
20,
24,
19,
20,
12,
14,
12,
12,
-2,
-2,
-23,
-22,
-26,
-21,
-14,
-16,
-14,
-15,
-2,
0,
20,
25,
19,
19,
12,
14,
12,
12,
-1,
-1,
-23,
-22,
-27,
-22,
-14,
-16,
-14,
-15,
-1,
-1,
20,
24,
19,
19,
12,
14,
12,
12,
-2,
-2,
-23,
-22,
-27,
-21,
-14,
-16,
-14,
-15,
-2,
0,
20,
24,
19,
20,
12,
14,
12,
13,
-1,
-1,
-23,
-27,
-22,
-22,
-14,
-16,
-14,
-14,
-1,
0,
20,
25,
19,
19,
12,
13,
12,
12,
-2,
-1,
-23,
-22,
-27,
-21,
-14,
-14,
-16,
-15,
-2,
0,
20,
24,
19,
19,
12,
13,
12,
12,
-1,
-1,
-23,
-27,
-22,
-21,
-14,
-14,
-16,
-14,
-2,
0,
20,
25,
19,
19,
12,
14,
12,
13,
-1,
-1,
-23,
-22,
-27,
-21,
-14,
-16,
-14,
-15,
-2,
-1,
20,
25,
19,
19,
12,
13,
11,
12,
-2,
-2,
-23,
-22,
-27,
-22,
-15,
-16,
-14,
-14,
-2,
-1,
20,
25,
19,
19,
12,
14,
12,
13,
-1,
-2,
-23,
-22,
-27,
-21,
-15,
-14,
-16,
-14,
-2,
-1,
20,
24,
19,
20,
12,
13,
12,
12,
-1,
-2,
-23,
-22,
-27,
-21,
-14,
-14,
-16,
-14,
-2,
0,
21,
24,
19,
19,
12,
14,
12,
12,
-1,
-1,
-23,
-22,
-27,
-21,
-14,
-16,
-14,
-15,
-1,
-1,
20,
24,
19,
19,
12,
13,
11,
12,
-1,
-1,
-23,
-22,
-27,
-21,
-14,
-14,
-16,
-15,
-1,
0,
20,
24,
19,
19,
12,
14,
12,
12,
-1,
-1,
-23,
-22,
-27,
-22,
-14,
-15,
-17,
-15,
-1,
0,
20,
24,
19,
19,
12,
13,
11,
12,
-1,
-2,
-23,
-22,
-27,
-21,
-14,
-16,
-14,
-15,
-2,
-1,
20,
25,
19,
19,
12,
14,
12,
13,
-2,
-2,
-23,
-22,
-27,
-21,
-15,
-16,
-14,
-15,
-1,
-1,
20,
25,
19,
19,
11,
14,
12,
12,
-2,
-1,
-23,
-27,
-21,
-20,
9,
11,
24,
24,
2,
3,
-24,
-27,
-20,
-19,
10,
11,
25,
24,
2,
2,
-24,
-27,
-21,
-21,
-14,
-14,
-16,
-14,
-2,
-1,
20,
24,
18,
18,
-13,
-13,
-26,
-26,
-6,
-4,
21,
24,
17,
17,
-13,
-12,
-27,
-26,
-6,
-4,
21,
24,
17,
17,
-12,
-12,
-27,
-26,
-5,
-4,
20,
24,
17,
17,
-12,
-12,
-27,
-26,
-6,
-4,
20,
24,
17,
17,
-13,
-12,
-26,
-26,
-5,
-4,
20,
24,
17,
17,
-13,
-12,
-26,
-26,
-5,
-4,
21,
24,
17,
16,
-13,
-12,
-26,
-26,
-6,
-4,
20,
24,
16,
17,
-13,
-13,
-26,
-26,
-5,
-4,
20,
24,
17,
16,
-12,
-12,
-26,
-26,
-5,
-4,
20,
24,
17,
16,
-13,
-13,
-26,
-26,
-5,
-4,
21,
24,
17,
17,
-13,
-13,
-26,
-26,
-5,
-4,
21,
24,
17,
17,
-13,
-13,
-26,
-26,
-6,
-4,
21,
24,
17,
17,
-13,
-13,
-26,
-26,
-5,
-4,
20,
24,
18,
19,
12,
14,
12,
13,
-2,
-2,
-23,
-22,
-27,
-21,
-14,
-16,
-14,
-15,
-1,
0,
20,
25,
19,
19,
12,
14,
12,
13,
-1,
-1,
-23,
-22,
-27,
-22,
-15,
-16,
-14,
-15,
-1,
0,
20,
25,
18,
18,
-13,
-12,
-26,
-26,
-6,
-4,
21,
24,
17,
17,
-13,
-12,
-26,
-26,
-6,
-4,
21,
24,
17,
16,
-13,
-13,
-26,
-26,
-6,
-4,
21,
25,
18,
18,
12,
14,
12,
12,
-1,
-2,
-23,
-27,
-20,
-19,
10,
11,
24,
24,
3,
3,
-24,
-27,
-21,
-21,
-14,
-14,
-16,
-15,
-2,
-1,
20,
24,
18,
17,
-13,
-12,
-26,
-26,
-5,
-4,
21,
24,
17,
16,
-13,
-13,
-26,
-26,
-6,
-4,
20,
24,
17,
17,
-12,
-12,
-27,
-26,
-6,
-5,
22,
24,
17,
17,
-13,
-12,
-26,
-26,
-6,
-4,
21,
24,
17,
16,
-13,
-12,
-26,
-26,
-6,
-4,
20,
24,
16,
17,
-13,
-13,
-26,
-26,
-5,
-4,
20,
24,
17,
17,
-13,
-13,
-26,
-26,
-5,
-4,
21,
23,
16,
16,
-12,
-12,
-26,
-26,
-5,
-4,
21,
24,
17,
17,
-13,
-13,
-27,
-26,
-5,
-4,
21,
24,
17,
16,
-13,
-13,
-26,
-26,
-5,
-4,
20,
24,
17,
16,
-13,
-13,
-26,
-26,
-5,
-4,
21,
25,
17,
17,
-13,
-13,
-26,
-26,
-6,
-4,
21,
24,
17,
16,
-12,
-12,
-26,
-26,
-6,
-4,
20,
24,
17,
17,
-12,
-13,
-26,
-26,
-5,
-4,
21,
24,
17,
16,
-12,
-12,
-27,
-26,
-6,
-4,
20,
24,
16,
16,
-12,
-13,
-26,
-26,
-5,
-4,
21,
24,
17,
16,
-13,
-13,
-26,
-26,
-5,
-4,
20,
24,
16,
16,
-13,
-13,
-27,
-26,
-5,
-4,
21,
24,
16,
16,
-13,
-12,
-27,
-26,
-6,
-5,
21,
24,
17,
17,
-13,
-12,
-26,
-26,
-5,
-4,
21,
24,
17,
16,
-13,
-12,
-26,
-26,
-5,
-4,
21,
24,
17,
16,
-12,
-13,
-26,
-26,
-5,
-4,
21,
24,
17,
16,
-12,
-13,
-26,
-26,
-6,
-4,
21,
24,
17,
17,
-13,
-13,
-27,
-26,
-6,
-4,
21,
24,
16,
17,
-13,
-13,
-26,
-26,
-6,
-4,
21,
24,
18,
18,
12,
13,
12,
12,
-1,
-1,
-23,
-27,
-22,
-21,
-15,
-16,
-14,
-15,
-2,
-1,
20,
25,
18,
18,
-13,
-13,
-26,
-26,
-5,
-4,
20,
24,
17,
17,
-13,
-13,
-26,
-26,
-5,
-4,
21,
24,
18,
18,
12,
14,
12,
13,
-2,
-1,
-23,
-27,
-21,
-19,
10,
11,
24,
24,
3,
2,
-24,
-27,
-21,
-21,
-15,
-14,
-16,
-15,
-1,
0,
20,
24,
18,
18,
-13,
-13,
-26,
-26,
-5,
-4,
21,
24,
18,
19,
12,
13,
12,
12,
-1,
-2,
-23,
-22,
-27,
-22,
-14,
-14,
-16,
-14,
-1,
-1,
20,
25,
18,
18,
-13,
-12,
-27,
-26,
-5,
-4,
20,
24,
16,
16,
-13,
-13,
-26,
-26,
-6,
-4,
21,
24,
17,
16,
-13,
-13,
-27,
-26,
-5,
-4,
21,
24,
17,
17,
-13,
-12,
-27,
-26,
-5,
-4,
21,
24,
18,
18,
12,
13,
11,
12,
-1,
-2,
-23,
-22,
-27,
-21,
-14,
-14,
-16,
-14,
-1,
0,
20,
24,
19,
19,
12,
14,
12,
12,
-1,
-1,
-23,
-27,
-22,
-21,
-14,
-14,
-16,
-15,
-1,
0,
20,
25,
19,
19,
12,
14,
12,
12,
-2,
-1,
-23,
-22,
-27,
-21,
-14,
-14,
-16,
-15,
-1,
0,
20,
25,
17,
17,
-13,
-12,
-26,
-26,
-5,
-4,
21,
25,
17,
17,
-13,
-12,
-26,
-26,
-5,
-4,
21,
24,
16,
17,
-13,
-13,
-27,
-26,
-6,
-4,
21,
24,
17,
17,
-13,
-13,
-27,
-26,
-5,
-4,
21,
24,
17,
17,
-12,
-12,
-26,
-26,
-6,
-4,
21,
24,
17,
17,
-13,
-13,
-26,
-26,
-5,
-3,
21,
24,
18,
19,
12,
14,
12,
13,
-2,
-2,
-23,
-27,
-20,
-19,
10,
10,
24,
24,
3,
2,
-24,
-27,
-21,
-21,
-14,
-16,
-14,
-15,
-1,
0,
20,
25,
19,
19,
12,
14,
12,
12,
-1,
-2,
-23,
-22,
-27,
-21,
-14,
-16,
-14,
-15,
-2,
-1,
20,
25,
17,
17,
-12,
-13,
-27,
-26,
-6,
-4,
21,
25,
18,
19,
12,
13,
12,
12,
-1,
-1,
-23,
-27,
-22,
-21,
-14,
-16,
-14,
-15,
-1,
0,
20,
25,
19,
19,
12,
13,
12,
12,
-1,
-1,
-22,
-22,
-27,
-21,
-14,
-16,
-14,
-15,
-2,
-1,
20,
24,
19,
19,
12,
14,
12,
12,
-2,
-2,
-23,
-27,
-20,
-19,
9,
10,
24,
23,
2,
2,
-23,
-27,
-21,
-21,
-14,
-16,
-14,
-15,
-1,
-1,
20,
25,
19,
19,
12,
14,
12,
12,
-1,
-2,
-23,
-27,
-20,
-19,
10,
11,
25,
24,
2,
2,
-23,
-27,
-21,
-20,
-14,
-14,
-16,
-14,
-1,
0,
20,
25,
19,
19,
12,
14,
12,
12,
-2,
-2,
-23,
-27,
-22,
-21,
-15,
-14,
-16,
-15,
-1,
0,
20,
25,
17,
18,
-13,
-13,
-27,
-26,
-6,
-4,
21,
24,
17,
17,
-12,
-13,
-26,
-26,
-5,
-4,
20,
24,
17,
17,
-12,
-13,
-27,
-26,
-6,
-4,
21,
25,
16,
16,
-13,
-13,
-26,
-26,
-5,
-4,
21,
24,
17,
17,
-13,
-13,
-26,
-26,
-5,
-4,
21,
24,
17,
17,
-12,
-12,
-27,
-26,
-5,
-4,
21,
24,
17,
16,
-13,
-12,
-26,
-26,
-5,
-4,
21,
24,
17,
17,
-13,
-13,
-26,
-26,
-5,
-4,
21,
24,
17,
17,
-13,
-13,
-26,
-26,
-5,
-4,
21,
24,
17,
16,
-13,
-13,
-26,
-26,
-5,
-4,
20,
24,
18,
19,
12,
14,
12,
12,
-2,
-1,
-23,
-27,
-21,
-19,
10,
10,
25,
24,
2,
2,
-24,
-27,
-20,
-19,
9,
11,
24,
24,
2,
2,
-24,
-26,
-21,
-21,
-15,
-16,
-14,
-14,
-2,
-1,
20,
25,
18,
17,
-12,
-12,
-26,
-26,
-5,
-4,
21,
24,
18,
18,
13,
14,
12,
12,
-2,
-2,
-23,
-22,
-27,
-21,
-14,
-14,
-16,
-15,
-1,
-1,
20,
25,
17,
17,
-13,
-12,
-27,
-26,
-6,
-4,
20,
24,
17,
16,
-13,
-13,
-26,
-26,
-5,
-4,
20,
24,
18,
18,
12,
14,
11,
12,
-1,
-1,
-23,
-22,
-27,
-21,
-14,
-14,
-16,
-15,
-2,
-1,
20,
25,
17,
17,
-13,
-13,
-26,
-26,
-5,
-4,
21,
24,
17,
17,
-13,
-13,
-27,
-26,
-5,
-4,
21,
24,
17,
16,
-13,
-13,
-27,
-26,
-5,
-4,
21,
24,
18,
18,
12,
14,
12,
12,
-2,
-2,
-23,
-27,
-22,
-22,
-15,
-16,
-14,
-15,
-1,
0,
20,
25,
18,
17,
-13,
-12,
-26,
-26,
-5,
-4,
21,
23,
18,
18,
12,
13,
12,
12,
-1,
-1,
-24,
-27,
-22,
-22,
-14,
-14,
-16,
-15,
-1,
0,
20,
25,
18,
17,
-13,
-13,
-27,
-26,
-6,
-4,
20,
24,
17,
17,
-13,
-13,
-26,
-26,
-5,
-4,
21,
24,
17,
16,
-13,
-12,
-26,
-26,
-6,
-4,
21,
24,
18,
19,
12,
14,
12,
12,
-1,
-2,
-23,
-27,
-22,
-22,
-15,
-14,
-16,
-15,
-1,
0,
20,
25,
19,
19,
12,
14,
12,
12,
-2,
-2,
-23,
-27,
-21,
-19,
10,
11,
24,
24,
3,
2,
-24,
-27,
-21,
-21,
-14,
-16,
-14,
-15,
-2,
-1,
20,
25,
18,
17,
-13,
-13,
-27,
-26,
-6,
-4,
21,
24,
16,
16,
-13,
-12,
-27,
-26,
-6,
-4,
21,
24,
17,
16,
-13,
-13,
-26,
-26,
-6,
-4,
21,
25,
16,
16,
-13,
-12,
-27,
-26,
-5,
-4,
21,
24,
16,
16,
-12,
-13,
-27,
-26,
-5,
-3,
21,
24,
17,
16,
-13,
-12,
-26,
-26,
-6,
-4,
21,
24,
16,
17,
-13,
-13,
-27,
-26,
-5,
-4,
21,
24,
16,
16,
-12,
-13,
-27,
-26,
-5,
-4,
20,
24,
16,
16,
-13,
-13,
-26,
-26,
-5,
-4,
21,
24,
17,
16,
-13,
-12,
-26,
-26,
-6,
-4,
21,
24,
17,
17,
-13,
-13,
-26,
-26,
-5,
-4,
21,
24,
16,
17,
-13,
-13,
-26,
-26,
-5,
-4,
21,
24,
17,
16,
-13,
-12,
-26,
-26,
-6,
-4,
21,
25,
17,
16,
-12,
-13,
-27,
-26,
-5,
-4,
21,
24,
17,
17,
-13,
-13,
-26,
-26,
-5,
-3,
21,
24,
17,
16,
-12,
-12,
-26,
-26,
-5,
-4,
21,
24,
17,
16,
-12,
-13,
-26,
-26,
-5,
-3,
21,
24,
16,
16,
-13,
-13,
-26,
-26,
-5,
-4,
21,
24,
16,
16,
-12,
-13,
-26,
-26,
-5,
-4,
20,
24,
16,
16,
-13,
-13,
-26,
-26,
-5,
-4,
21,
24,
17,
17,
-13,
-12,
-27,
-26,
-5,
-4,
21,
24,
17,
17,
-13,
-13,
-27,
-26,
-5,
-4,
21,
24,
18,
18,
12,
14,
12,
12,
-2,
-2,
-23,
-27,
-21,
-21,
-14,
-16,
-14,
-15,
-1,
0,
20,
25,
17,
17,
-13,
-13,
-26,
-26,
-6,
-4,
21,
24,
17,
16,
-12,
-13,
-26,
-26,
-5,
-4,
21,
24,
17,
17,
-13,
-12,
-26,
-26,
-5,
-4,
21,
24,
17,
17,
-13,
-13,
-27,
-26,
-5,
-4,
21,
24,
16,
17,
-13,
-13,
-26,
-26,
-5,
-4,
20,
24,
16,
16,
-12,
-13,
-26,
-26,
-6,
-4,
21,
24,
19,
19,
12,
14,
12,
12,
-1,
-1,
-23,
-22,
-27,
-21,
-14,
-14,
-16,
-14,
-1,
0,
20,
24,
18,
17,
-13,
-12,
-26,
-26,
-5,
-4,
20,
24,
17,
17,
-13,
-13,
-26,
-26,
-5,
-4,
20,
24,
16,
16,
-13,
-12,
-26,
-26,
-6,
-4,
22,
24,
17,
16,
-13,
-13,
-27,
-26,
-5,
-3,
21,
24,
17,
17,
-13,
-13,
-26,
-26,
-5,
-4,
21,
24,
17,
17,
-12,
-12,
-26,
-26,
-5,
-4,
20,
24,
17,
16,
-13,
-13,
-27,
-26,
-5,
-4,
21,
24,
19,
18,
12,
14,
11,
12,
-2,
-2,
-23,
-27,
-21,
-20,
10,
11,
24,
24,
2,
3,
-24,
-27,
-20,
-18,
10,
11,
24,
24,
3,
2,
-23,
-27,
-20,
-19,
9,
10,
24,
24,
2,
2,
-24,
-27,
-21,
-20,
-15,
-16,
-14,
-15,
-2,
0,
20,
25,
17,
17,
-13,
-13,
-27,
-26,
-6,
-4,
21,
24,
17,
16,
-12,
-12,
-27,
-26,
-5,
-4,
21,
24,
17,
17,
-12,
-12,
-26,
-26,
-5,
-4,
21,
24,
17,
17,
-13,
-13,
-27,
-26,
-5,
-4,
21,
24,
17,
17,
-12,
-13,
-26,
-26,
-5,
-4,
21,
24,
18,
17,
-13,
-13,
-27,
-26,
-5,
-4,
21,
24,
17,
16,
-13,
-13,
-27,
-26,
-5,
-3,
21,
24,
16,
16,
-12,
-13,
-26,
-26,
-5,
-4,
21,
24,
18,
19,
12,
13,
12,
12,
-1,
-2,
-23,
-22,
-27,
-21,
-14,
-16,
-14,
-15,
-1,
0,
20,
24,
18,
17,
-12,
-12,
-26,
-26,
-5,
-4,
20,
24,
16,
16,
-13,
-12,
-26,
-26,
-5,
-4,
20,
24,
16,
17,
-13,
-13,
-26,
-26,
-5,
-4,
21,
24,
17,
16,
-12,
-13,
-27,
-26,
-5,
-4,
21,
24,
16,
16,
-13,
-12,
-26,
-26,
-5,
-4,
20,
24,
16,
17,
-13,
-13,
-26,
-26,
-5,
-4,
21,
24,
16,
16,
-13,
-12,
-26,
-25,
-5,
-3,
21,
24,
16,
16,
-13,
-13,
-26,
-26,
-5,
-3,
21,
24,
16,
17,
-13,
-13,
-26,
-26,
-5,
-4,
21,
24,
18,
19,
12,
13,
12,
12,
-2,
-2,
-23,
-27,
-22,
-22,
-14,
-14,
-16,
-14,
-1,
0,
20,
24,
17,
17,
-13,
-13,
-27,
-26,
-5,
-3,
21,
24,
17,
16,
-13,
-13,
-26,
-26,
-5,
-4,
20,
24,
18,
18,
12,
13,
11,
12,
-2,
-2,
-23,
-27,
-21,
-19,
10,
11,
24,
24,
2,
2,
-24,
-27,
-21,
-21,
-15,
-14,
-16,
-15,
-1,
0,
20,
24,
17,
17,
-13,
-13,
-26,
-26,
-5,
-4,
21,
24,
19,
18,
12,
14,
12,
12,
-2,
-2,
-23,
-27,
-22,
-21,
-15,
-14,
-16,
-15,
-1,
0,
21,
25,
18,
18,
-13,
-13,
-26,
-26,
-5,
-4,
21,
24,
16,
16,
-13,
-13,
-27,
-26,
-5,
-3,
21,
24,
16,
17,
-13,
-13,
-27,
-26,
-6,
-4,
20,
24,
16,
16,
-13,
-13,
-27,
-26,
-5,
-4,
21,
24,
18,
18,
12,
14,
11,
12,
-2,
-2,
-23,
-27,
-22,
-21,
-14,
-16,
-14,
-14,
-1,
0,
20,
25,
19,
19,
12,
14,
12,
12,
-1,
-1,
-23,
-27,
-22,
-21,
-14,
-14,
-16,
-14,
-1,
0,
20,
25,
19,
19,
12,
14,
12,
12,
-2,
-2,
-23,
-22,
-27,
-21,
-15,
-14,
-16,
-14,
-1,
0,
20,
24,
18,
17,
-13,
-13,
-26,
-26,
-5,
-4,
21,
24,
17,
17,
-13,
-13,
-27,
-26,
-5,
-3,
21,
24,
16,
16,
-13,
-12,
-27,
-26,
-5,
-4,
21,
24,
17,
17,
-13,
-13,
-26,
-26,
-5,
-4,
21,
24,
16,
16,
-13,
-13,
-27,
-26,
-5,
-4,
21,
24,
16,
16,
-13,
-13,
-26,
-26,
-5,
-3,
21,
24,
18,
18,
12,
14,
11,
12,
-1,
-2,
-23,
-27,
-20,
-19,
10,
11,
24,
24,
2,
2,
-24,
-27,
-21,
-21,
-15,
-16,
-14,
-15,
-1,
0,
20,
25,
18,
19,
12,
13,
11,
12,
-2,
-1,
-23,
-27,
-22,
-22,
-14,
-14,
-16,
-15,
-1,
-1,
20,
25,
17,
17,
-13,
-13,
-26,
-26,
-5,
-4,
21,
24,
18,
18,
12,
13,
12,
12,
-2,
-2,
-23,
-22,
-28,
-21,
-14,
-16,
-14,
-15,
-1,
0,
20,
25,
19,
19,
12,
14,
12,
12,
-1,
-1,
-23,
-27,
-22,
-21,
-15,
-16,
-14,
-15,
-2,
0,
21,
24,
19,
19,
12,
13,
12,
12,
-2,
-1,
-23,
-27,
-20,
-19,
10,
11,
24,
24,
2,
2,
-24,
-27,
-21,
-21,
-14,
-16,
-14,
-15,
-1,
0,
20,
25,
18,
17,
-13,
-13,
-27,
-26,
-5,
-4,
21,
24,
18,
19,
12,
14,
12,
12,
-2,
-2,
-23,
-22,
-26,
-21,
-14,
-14,
-16,
-15,
-2,
0,
20,
25,
19,
19,
13,
14,
12,
12,
-2,
-2,
-23,
-27,
-22,
-21,
-15,
-16,
-14,
-14,
-2,
0,
20,
24,
17,
17,
-13,
-13,
-26,
-26,
-6,
-4,
21,
24,
16,
16,
-13,
-13,
-26,
-26,
-5,
-4,
21,
24,
16,
16,
-13,
-13,
-26,
-26,
-5,
-4,
21,
25,
16,
17,
-13,
-13,
-27,
-26,
-5,
-4,
21,
24,
16,
17,
-13,
-13,
-27,
-26,
-5,
-3,
20,
24,
17,
16,
-12,
-12,
-26,
-26,
-5,
-4,
21,
24,
16,
16,
-13,
-13,
-26,
-26,
-5,
-3,
21,
24,
17,
16,
-13,
-13,
-26,
-25,
-5,
-3,
21,
24,
17,
16,
-12,
-12,
-26,
-26,
-5,
-4,
21,
24,
16,
17,
-13,
-13,
-26,
-25,
-5,
-3,
21,
24,
16,
16,
-13,
-13,
-26,
-26,
-5,
-4,
21,
24,
16,
16,
-13,
-12,
-26,
-26,
-5,
-4,
21,
24,
16,
16,
-13,
-13,
-26,
-26,
-5,
-3,
21,
24,
16,
16,
-14,
-14,
-26,
-26,
-5,
-3,
21,
24,
16,
16,
-13,
-13,
-26,
-26,
-5,
-3,
21,
24,
16,
16,
-13,
-13,
-26,
-26,
-5,
-3,
20,
24,
16,
17,
-13,
-13,
-27,
-26,
-5,
-3,
21,
24,
16,
16,
-13,
-13,
-26,
-25,
-5,
-4,
21,
24,
16,
17,
-13,
-13,
-26,
-25,
-5,
-4,
21,
25,
16,
16,
-12,
-13,
-26,
-26,
-5,
-3,
21,
24,
17,
17,
-13,
-12,
-27,
-26,
-5,
-4,
21,
24,
16,
16,
-12,
-13,
-26,
-26,
-5,
-4,
21,
24,
16,
16,
-13,
-13,
-26,
-26,
-5,
-4,
21,
24,
16,
16,
-13,
-13,
-26,
-26,
-5,
-3,
21,
24,
16,
16,
-13,
-13,
-26,
-26,
-5,
-3,
21,
24,
16,
16,
-13,
-13,
-26,
-26,
-5,
-4,
21,
25,
16,
17,
-13,
-13,
-26,
-26,
-5,
-4,
21,
24,
16,
16,
-13,
-13,
-26,
-26,
-5,
-3,
21,
24,
16,
16,
-13,
-13,
-26,
-26,
-5,
-4,
21,
24,
16,
16,
-13,
-13,
-26,
-26,
-5,
-3,
21,
24,
16,
16,
-12,
-13,
-27,
-26,
-5,
-3,
21,
24,
16,
16,
-13,
-13,
-26,
-26,
-5,
-3,
21,
24,
16,
16,
-13,
-13,
-27,
-26,
-5,
-3,
21,
24,
16,
16,
-13,
-13,
-26,
-26,
-5,
-4,
21,
24,
16,
17,
-13,
-13,
-26,
-26,
-5,
-4,
21,
24,
16,
17,
-13,
-13,
-26,
-26,
-5,
-3,
21,
24,
16,
17,
-13,
-13,
-26,
-26,
-5,
-4,
21,
24,
16,
17,
-13,
-13,
-26,
-26,
-5,
-4,
21,
24,
16,
16,
-13,
-13,
-26,
-26,
-5,
-3,
21,
24,
16,
16,
-13,
-13,
-26,
-26,
-5,
-4,
20,
24,
16,
16,
-13,
-13,
-26,
-26,
-5,
-3,
21,
24,
18,
18,
12,
13,
12,
13,
-2,
-2,
-23,
-27,
-22,
-21,
-14,
-15,
-16,
-15,
-1,
0,
20,
24,
17,
17,
-13,
-13,
-26,
-26,
-5,
-3,
21,
24,
16,
17,
-12,
-13,
-26,
-26,
-5,
-3,
21,
24,
16,
16,
-13,
-13,
-26,
-26,
-5,
-4,
22,
24,
16,
16,
-13,
-13,
-26,
-26,
-5,
-4,
21,
24,
16,
16,
-13,
-13,
-26,
-26,
-5,
-4,
21,
24,
16,
16,
-13,
-13,
-26,
-26,
-5,
-4,
21,
24,
16,
16,
-13,
-13,
-26,
-26,
-5,
-3,
21,
24,
16,
16,
-13,
-13,
-27,
-26,
-5,
-4,
21,
24,
16,
17,
-13,
-13,
-26,
-26,
-5,
-3,
21,
24,
18,
19,
12,
13,
12,
12,
-2,
-2,
-24,
-22,
-27,
-21,
-15,
-16,
-13,
-15,
-1,
0,
20,
24,
17,
17,
-13,
-13,
-26,
-26,
-5,
-4,
21,
24,
17,
16,
-13,
-13,
-26,
-26,
-5,
-3,
21,
24,
18,
18,
12,
14,
12,
12,
-1,
-2,
-23,
-27,
-20,
-19,
10,
11,
24,
24,
2,
2,
-24,
-26,
-21,
-21,
-14,
-14,
-16,
-14,
-1,
0,
20,
25,
17,
17,
-13,
-13,
-27,
-26,
-5,
-4,
21,
24,
18,
19,
12,
14,
12,
12,
-2,
-2,
-23,
-27,
-22,
-21,
-14,
-14,
-16,
-15,
-1,
-1,
21,
25,
17,
17,
-13,
-13,
-27,
-26,
-5,
-3,
21,
24,
16,
16,
-13,
-13,
-26,
-26,
-5,
-3,
21,
24,
17,
16,
-13,
-13,
-26,
-26,
-5,
-4,
21,
24,
16,
16,
-13,
-13,
-26,
-26,
-5,
-3,
21,
24,
18,
18,
12,
13,
12,
12,
-2,
-2,
-24,
-27,
-22,
-21,
-14,
-16,
-14,
-15,
-1,
0,
20,
25,
19,
19,
12,
13,
12,
12,
-2,
-2,
-23,
-28,
-22,
-21,
-15,
-14,
-16,
-15,
-1,
0,
20,
25,
19,
19,
12,
14,
12,
12,
-2,
-2,
-23,
-22,
-27,
-22,
-15,
-15,
-16,
-15,
-1,
0,
20,
24,
17,
17,
-13,
-13,
-27,
-26,
-5,
-4,
21,
24,
16,
16,
-13,
-13,
-27,
-26,
-5,
-3,
21,
24,
16,
16,
-13,
-13,
-26,
-26,
-5,
-4,
21,
24,
16,
16,
-13,
-13,
-27,
-26,
-5,
-3,
21,
24,
16,
16,
-13,
-13,
-26,
-26,
-5,
-4,
21,
24,
16,
16,
-13,
-12,
-27,
-26,
-5,
-4,
21,
24,
18,
18,
12,
13,
12,
12,
-2,
-2,
-23,
-27,
-20,
-19,
10,
11,
24,
23,
2,
2,
-24,
-27,
-20,
-21,
-14,
-16,
-14,
-15,
-1,
0,
20,
25,
19,
19,
12,
13,
12,
12,
-1,
-2,
-24,
-27,
-22,
-21,
-14,
-16,
-14,
-15,
-1,
0,
20,
25,
17,
17,
-13,
-13,
-26,
-26,
-5,
-3,
21,
24,
18,
18,
12,
14,
12,
12,
-2,
-2,
-23,
-22,
-27,
-21,
-14,
-14,
-16,
-14,
-1,
0,
21,
25,
19,
19,
12,
14,
12,
12,
-2,
-2,
-23,
-22,
-27,
-21,
-14,
-14,
-16,
-14,
-1,
0,
20,
25,
19,
19,
12,
14,
11,
11,
-2,
-2,
-23,
-27,
-20,
-19,
10,
11,
24,
24,
2,
2,
-23,
-27,
-21,
-21,
-15,
-15,
-16,
-14,
-1,
0,
21,
25,
17,
17,
-13,
-13,
-27,
-26,
-5,
-3,
21,
24,
18,
18,
12,
14,
11,
12,
-3,
-2,
-23,
-22,
-27,
-21,
-14,
-16,
-14,
-15,
-1,
0,
21,
25,
19,
19,
12,
14,
12,
12,
-2,
-2,
-23,
-27,
-22,
-21,
-15,
-14,
-16,
-14,
-2,
0,
21,
24,
17,
17,
-13,
-13,
-27,
-26,
-5,
-4,
21,
25,
16,
16,
-13,
-12,
-27,
-26,
-5,
-3,
21,
24,
16,
16,
-13,
-13,
-26,
-25,
-5,
-4,
21,
24,
16,
16,
-13,
-13,
-27,
-26,
-5,
-3,
21,
24,
16,
16,
-13,
-13,
-27,
-26,
-5,
-4,
21,
24,
16,
16,
-13,
-13,
-27,
-26,
-5,
-3,
21,
24,
16,
16,
-13,
-13,
-26,
-26,
-5,
-3,
21,
24,
16,
16,
-13,
-13,
-26,
-26,
-5,
-3,
21,
25,
16,
16,
-13,
-13,
-27,
-26,
-5,
-3,
21,
24,
18,
18,
12,
14,
12,
12,
-2,
-1,
-23,
-27,
-21,
-21,
-14,
-15,
-17,
-15,
-1,
0,
20,
25,
17,
17,
-13,
-13,
-26,
-26,
-5,
-3,
21,
24,
18,
18,
12,
14,
12,
12,
-2,
-2,
-23,
-27,
-20,
-19,
10,
11,
24,
24,
2,
2,
-24,
-26,
-20,
-20,
-14,
-16,
-14,
-14,
-1,
0,
20,
24,
18,
17,
-13,
-13,
-27,
-26,
-5,
-4,
21,
24,
16,
17,
-13,
-13,
-26,
-26,
-5,
-4,
22,
24,
17,
16,
-13,
-13,
-26,
-26,
-5,
-3,
21,
25,
16,
16,
-13,
-13,
-27,
-26,
-5,
-3,
21,
24,
16,
16,
-13,
-13,
-26,
-26,
-5,
-4,
21,
24,
16,
16,
-13,
-13,
-27,
-26,
-5,
-3,
21,
24,
17,
16,
-13,
-13,
-26,
-26,
-5,
-3,
21,
24,
16,
16,
-13,
-13,
-27,
-26,
-5,
-3,
21,
24,
16,
16,
-13,
-13,
-27,
-26,
-5,
-4,
21,
23,
16,
16,
-14,
-13,
-27,
-26,
-5,
-3,
22,
24,
16,
16,
-13,
-13,
-26,
-26,
-5,
-3,
21,
24,
17,
16,
-14,
-13,
-26,
-26,
-5,
-4,
21,
24,
16,
16,
-13,
-13,
-26,
-26,
-5,
-3,
20,
24,
17,
16,
-13,
-13,
-26,
-26,
-5,
-3,
21,
24,
16,
16,
-13,
-13,
-27,
-26,
-5,
-4,
21,
24,
16,
16,
-13,
-13,
-26,
-26,
-5,
-3,
22,
24,
16,
16,
-13,
-13,
-26,
-26,
-5,
-3,
21,
24,
16,
16,
-13,
-13,
-26,
-26,
-5,
-3,
20,
24,
16,
16,
-13,
-13,
-26,
-26,
-5,
-3,
21,
24,
16,
16,
-13,
-13,
-26,
-26,
-5,
-4,
21,
24,
16,
16,
-13,
-13,
-27,
-26,
-5,
-3,
21,
24,
18,
18,
12,
13,
11,
12,
-2,
-1,
-23,
-27,
-22,
-21,
-15,
-16,
-14,
-14,
-1,
0,
20,
25,
19,
19,
12,
13,
12,
12,
-2,
-2,
-24,
-27,
-22,
-21,
-14,
-16,
-14,
-15,
-1,
0,
20,
24,
17,
17,
-13,
-13,
-27,
-26,
-5,
-4,
21,
24,
17,
