Acquisitions/CSV/10Mbps/Rigol/DS0001.CSV

Format,2.0A,
Memory Length,5000,
IntpDistance,3472,
Trigger Address,179,
Trigger Level,80.0mV,
Source,CH1,
Vertical Units,V,
Vertical Units Div,0,
Vertical Units Extend Div,13,
Label, ,
Probe Type,0,
Probe Ratio,1.000E+00,
Vertical Scale,2.000E-01,
Vertical Position,8.000E-03,
Horizontal Units,S,
Horizontal Scale,2.000E-06,
Horizontal Position,9.280E-06,
Horizontal Mode,Main,
SincET Mode,Real Time,
Sampling Period,4.000E-09,
Horizontal Old Scale,2.000E-06,
Horizontal Old Position,9.280E-06,
Firmware,V1.20,
Time,29-Sep-21 16:39:23,
Mode,Fast,
Waveform Data,
0,
-1,
0,
-1,
0,
-1,
-2,
-1,
-1,
-1,
0,
-2,
0,
-2,
-2,
-1,
0,
-1,
0,
-1,
-2,
0,
0,
-1,
-2,
0,
0,
-1,
0,
-1,
0,
-1,
0,
-2,
0,
-2,
0,
-1,
0,
-1,
0,
-2,
0,
-2,
0,
-2,
0,
-1,
0,
-2,
0,
-2,
0,
-1,
-1,
-2,
0,
-1,
0,
-2,
-2,
0,
0,
-1,
-2,
0,
0,
-2,
-2,
0,
0,
-2,
-1,
-1,
0,
-1,
0,
-2,
-2,
0,
0,
-1,
0,
-1,
0,
-1,
0,
-2,
0,
-2,
-2,
2,
2,
8,
8,
14,
14,
21,
21,
23,
22,
19,
19,
8,
6,
-4,
-5,
-15,
-16,
-23,
-24,
-26,
-27,
-23,
-24,
-17,
-17,
-14,
-14,
-15,
-14,
-16,
-14,
-16,
-15,
-12,
-12,
-8,
-9,
1,
1,
9,
9,
19,
19,
25,
25,
24,
25,
18,
18,
14,
14,
12,
14,
13,
14,
13,
14,
12,
12,
9,
9,
3,
2,
-7,
-8,
-15,
-16,
-23,
-24,
-27,
-27,
-24,
-24,
-17,
-17,
-14,
-14,
-15,
-14,
-16,
-15,
-16,
-16,
-12,
-13,
-9,
-9,
1,
1,
9,
10,
18,
19,
24,
25,
24,
24,
19,
18,
14,
14,
12,
14,
13,
14,
13,
14,
12,
12,
9,
9,
3,
2,
-8,
-8,
-15,
-16,
-24,
-24,
-27,
-27,
-24,
-24,
-17,
-18,
-15,
-14,
-16,
-14,
-16,
-15,
-16,
-15,
-12,
-12,
-8,
-9,
1,
1,
8,
9,
18,
19,
24,
24,
25,
24,
19,
18,
13,
14,
13,
14,
13,
14,
13,
14,
12,
12,
9,
9,
3,
2,
-7,
-8,
-15,
-15,
-23,
-24,
-27,
-27,
-24,
-24,
-17,
-17,
-14,
-14,
-16,
-15,
-16,
-15,
-16,
-16,
-12,
-13,
-9,
-8,
1,
1,
9,
9,
18,
19,
24,
25,
24,
25,
19,
18,
14,
14,
13,
14,
13,
14,
13,
14,
12,
12,
9,
9,
2,
2,
-7,
-8,
-15,
-16,
-23,
-24,
-26,
-26,
-23,
-23,
-17,
-17,
-14,
-14,
-15,
-15,
-16,
-16,
-14,
-15,
-12,
-12,
-9,
-9,
1,
1,
9,
9,
19,
19,
24,
23,
25,
24,
19,
18,
13,
14,
12,
14,
13,
14,
13,
14,
12,
12,
9,
10,
2,
1,
-7,
-8,
-15,
-16,
-23,
-24,
-26,
-27,
-24,
-24,
-18,
-18,
-15,
-14,
-16,
-15,
-16,
-16,
-14,
-15,
-12,
-13,
-8,
-9,
1,
1,
10,
9,
19,
19,
24,
25,
24,
24,
19,
18,
14,
14,
13,
14,
13,
14,
13,
14,
11,
12,
9,
9,
3,
2,
-7,
-7,
-15,
-16,
-23,
-24,
-27,
-27,
-24,
-24,
-17,
-17,
-14,
-14,
-15,
-15,
-16,
-15,
-14,
-15,
-11,
-12,
-8,
-8,
2,
1,
9,
9,
18,
19,
24,
25,
24,
25,
19,
18,
14,
14,
12,
14,
13,
14,
13,
14,
12,
12,
9,
9,
3,
2,
-7,
-8,
-15,
-16,
-23,
-24,
-27,
-27,
-24,
-24,
-18,
-18,
-15,
-14,
-16,
-15,
-15,
-15,
-15,
-15,
-12,
-12,
-8,
-9,
1,
1,
9,
10,
19,
19,
24,
25,
24,
24,
19,
18,
14,
14,
13,
14,
13,
14,
13,
14,
12,
13,
9,
9,
3,
2,
-7,
-7,
-15,
-16,
-23,
-24,
-27,
-27,
-24,
-24,
-17,
-18,
-14,
-14,
-15,
-16,
-15,
-15,
-15,
-15,
-12,
-12,
-8,
-8,
1,
1,
9,
9,
18,
19,
24,
25,
24,
24,
19,
18,
14,
14,
13,
14,
13,
14,
13,
14,
12,
12,
9,
9,
3,
2,
-7,
-8,
-15,
-16,
-23,
-24,
-27,
-27,
-23,
-24,
-17,
-18,
-14,
-14,
-16,
-15,
-16,
-15,
-16,
-15,
-12,
-12,
-9,
-9,
1,
1,
9,
9,
19,
19,
24,
24,
26,
25,
19,
18,
14,
13,
13,
14,
13,
14,
13,
14,
12,
12,
9,
9,
3,
2,
-7,
-8,
-15,
-16,
-23,
-24,
-27,
-27,
-24,
-24,
-17,
-18,
-14,
-14,
-16,
-14,
-16,
-15,
-16,
-15,
-12,
-12,
-8,
-9,
2,
1,
9,
9,
18,
19,
24,
25,
24,
24,
19,
18,
13,
14,
13,
13,
14,
14,
13,
14,
12,
12,
9,
9,
3,
2,
-7,
-7,
-15,
-16,
-23,
-23,
-27,
-27,
-24,
-24,
-17,
-17,
-14,
-14,
-16,
-14,
-16,
-16,
-14,
-15,
-12,
-12,
-9,
-9,
1,
1,
10,
10,
18,
19,
24,
25,
24,
24,
19,
18,
14,
14,
13,
14,
13,
14,
13,
14,
12,
12,
9,
9,
3,
2,
-7,
-8,
-15,
-16,
-24,
-24,
-27,
-27,
-24,
-24,
-17,
-18,
-14,
-14,
-15,
-15,
-16,
-16,
-14,
-15,
-12,
-12,
-8,
-9,
1,
1,
10,
10,
18,
19,
24,
23,
25,
24,
18,
18,
14,
14,
12,
14,
13,
14,
13,
14,
12,
11,
9,
10,
3,
1,
-7,
-7,
-15,
-16,
-24,
-24,
-27,
-27,
-24,
-24,
-17,
-17,
-15,
-14,
-15,
-14,
-16,
-15,
-16,
-16,
-12,
-12,
-8,
-8,
1,
1,
9,
10,
18,
18,
23,
25,
24,
25,
19,
19,
14,
14,
13,
14,
13,
14,
13,
13,
12,
12,
9,
9,
3,
2,
-7,
-7,
-15,
-16,
-23,
-24,
-26,
-27,
-24,
-24,
-17,
-18,
-14,
-14,
-16,
-15,
-15,
-15,
-16,
-15,
-12,
-12,
-8,
-8,
1,
1,
9,
9,
19,
19,
24,
25,
24,
24,
19,
18,
13,
13,
12,
14,
13,
14,
13,
14,
12,
12,
9,
10,
2,
1,
-7,
-7,
-15,
-15,
-24,
-24,
-27,
-27,
-24,
-24,
-17,
-17,
-15,
-14,
-16,
-15,
-16,
-16,
-15,
-15,
-12,
-13,
-8,
-8,
1,
1,
10,
10,
18,
19,
24,
25,
24,
24,
19,
19,
14,
14,
12,
14,
13,
14,
13,
14,
12,
12,
9,
9,
2,
1,
-7,
-8,
-15,
-16,
-23,
-24,
-27,
-27,
-24,
-24,
-17,
-17,
-14,
-14,
-16,
-15,
-16,
-15,
-16,
-16,
-11,
-12,
-9,
-9,
1,
1,
9,
9,
18,
19,
24,
25,
24,
24,
19,
18,
13,
14,
12,
14,
13,
14,
13,
14,
12,
12,
9,
9,
3,
2,
-7,
-8,
-15,
-16,
-23,
-24,
-26,
-27,
-24,
-24,
-18,
-18,
-14,
-14,
-15,
-14,
-15,
-14,
-16,
-15,
-12,
-12,
-9,
-8,
1,
1,
9,
9,
19,
19,
24,
23,
25,
25,
18,
18,
14,
14,
12,
14,
13,
14,
13,
14,
12,
12,
9,
9,
3,
2,
-8,
-8,
-15,
-16,
-24,
-24,
-26,
-27,
-24,
-24,
-17,
-17,
-14,
-14,
-15,
-15,
-16,
-15,
-16,
-16,
-12,
-12,
-8,
-8,
1,
1,
10,
10,
18,
19,
24,
25,
24,
25,
19,
19,
13,
14,
12,
14,
13,
14,
13,
14,
12,
12,
9,
9,
3,
1,
-8,
-8,
-15,
-16,
-23,
-24,
-27,
-27,
-23,
-24,
-17,
-18,
-14,
-14,
-15,
-14,
-16,
-16,
-14,
-15,
-12,
-12,
-8,
-9,
1,
1,
10,
10,
19,
19,
24,
25,
24,
24,
19,
18,
14,
14,
13,
14,
13,
14,
13,
14,
12,
12,
9,
9,
3,
1,
-7,
-8,
-15,
-16,
-23,
-24,
-27,
-27,
-23,
-24,
-17,
-17,
-14,
-14,
-15,
-14,
-16,
-15,
-16,
-15,
-12,
-12,
-9,
-9,
1,
1,
9,
10,
18,
19,
24,
25,
24,
25,
19,
18,
14,
14,
12,
12,
14,
14,
13,
14,
12,
12,
9,
9,
3,
2,
-7,
-7,
-15,
-16,
-23,
-24,
-27,
-27,
-24,
-24,
-17,
-17,
-14,
-14,
-15,
-14,
-16,
-14,
-16,
-15,
-12,
-13,
-9,
-9,
1,
1,
9,
9,
18,
19,
24,
25,
24,
25,
19,
19,
14,
13,
13,
14,
13,
14,
13,
14,
12,
12,
9,
9,
3,
2,
-7,
-8,
-15,
-15,
-23,
-24,
-26,
-27,
-24,
-24,
-18,
-17,
-14,
-14,
-15,
-14,
-15,
-15,
-16,
-15,
-12,
-12,
-8,
-8,
1,
1,
9,
10,
19,
19,
24,
25,
24,
24,
18,
18,
14,
14,
13,
13,
13,
14,
13,
14,
12,
12,
9,
10,
3,
2,
-7,
-7,
-15,
-16,
-24,
-24,
-26,
-27,
-23,
-23,
-17,
-17,
-14,
-14,
-16,
-15,
-16,
-15,
-16,
-16,
-12,
-12,
-8,
-9,
1,
1,
9,
10,
18,
19,
24,
25,
24,
24,
18,
18,
13,
14,
12,
12,
14,
14,
13,
14,
11,
12,
9,
10,
3,
2,
-7,
-8,
-15,
-16,
-23,
-24,
-26,
-27,
-24,
-24,
-17,
-18,
-14,
-14,
-15,
-15,
-16,
-14,
-15,
-15,
-12,
-12,
-8,
-8,
1,
1,
9,
10,
19,
19,
24,
25,
24,
24,
19,
18,
14,
14,
13,
14,
13,
14,
13,
14,
12,
12,
9,
9,
3,
2,
-7,
-8,
-15,
-16,
-24,
-24,
-27,
-27,
-24,
-24,
-17,
-17,
-15,
-14,
-15,
-14,
-16,
-14,
-16,
-15,
-12,
-12,
-9,
-8,
1,
1,
9,
10,
18,
19,
24,
25,
24,
25,
18,
18,
13,
14,
12,
14,
13,
14,
13,
14,
13,
12,
9,
9,
3,
2,
-7,
-7,
-15,
-16,
-23,
-24,
-27,
-27,
-24,
-24,
-17,
-18,
-14,
-14,
-15,
-14,
-16,
-16,
-14,
-15,
-12,
-12,
-8,
-9,
1,
2,
9,
9,
19,
19,
24,
25,
24,
25,
19,
19,
13,
14,
12,
12,
14,
14,
13,
14,
12,
12,
9,
9,
3,
2,
-7,
-7,
-15,
-16,
-24,
-24,
-26,
-26,
-24,
-24,
-18,
-18,
-15,
-14,
-15,
-14,
-16,
-14,
-15,
-15,
-12,
-12,
-8,
-8,
1,
1,
9,
10,
18,
19,
24,
25,
24,
24,
19,
19,
13,
13,
13,
14,
13,
14,
13,
14,
12,
12,
9,
9,
3,
2,
-7,
-7,
-15,
-16,
-24,
-24,
-27,
-27,
-23,
-24,
-17,
-18,
-14,
-15,
-16,
-15,
-16,
-16,
-14,
-15,
-12,
-12,
-8,
-8,
1,
1,
9,
10,
18,
19,
24,
25,
24,
24,
18,
19,
14,
14,
13,
14,
13,
14,
13,
14,
12,
12,
9,
9,
3,
2,
-7,
-7,
-15,
-15,
-24,
-24,
-26,
-27,
-23,
-24,
-17,
-17,
-14,
-14,
-15,
-14,
-15,
-15,
-15,
-15,
-12,
-12,
-8,
-8,
1,
1,
9,
9,
18,
19,
24,
25,
24,
24,
19,
19,
13,
14,
12,
13,
13,
14,
13,
14,
12,
12,
9,
9,
3,
2,
-7,
-7,
-15,
-16,
-23,
-23,
-26,
-27,
-23,
-23,
-11,
-11,
2,
2,
12,
13,
22,
21,
24,
25,
22,
21,
13,
12,
1,
0,
-11,
-12,
-22,
-22,
-26,
-27,
-24,
-25,
-17,
-17,
-6,
-5,
7,
8,
18,
18,
23,
23,
25,
24,
18,
18,
7,
6,
-6,
-7,
-16,
-17,
-24,
-24,
-26,
-26,
-22,
-22,
-11,
-12,
2,
2,
12,
13,
21,
21,
25,
25,
22,
21,
13,
11,
1,
-1,
-11,
-12,
-21,
-22,
-26,
-26,
-24,
-24,
-17,
-17,
-6,
-5,
7,
7,
18,
18,
23,
23,
25,
24,
18,
18,
7,
6,
-6,
-7,
-17,
-18,
-24,
-24,
-26,
-26,
-22,
-22,
-11,
-11,
2,
2,
12,
13,
21,
21,
25,
25,
22,
22,
13,
11,
1,
0,
-11,
-12,
-21,
-22,
-26,
-25,
-27,
-25,
-17,
-17,
-5,
-5,
7,
8,
17,
18,
23,
24,
23,
23,
18,
18,
7,
6,
-7,
-7,
-16,
-17,
-24,
-24,
-26,
-26,
-22,
-22,
-11,
-11,
2,
2,
13,
13,
21,
21,
25,
25,
22,
22,
13,
12,
1,
-1,
-12,
-12,
-21,
-22,
-25,
-26,
-24,
-24,
-17,
-17,
-6,
-5,
8,
8,
18,
18,
23,
24,
23,
23,
18,
18,
8,
6,
-6,
-7,
-17,
-18,
-23,
-24,
-26,
-26,
-21,
-22,
-11,
-11,
2,
2,
13,
12,
21,
21,
25,
25,
22,
22,
13,
12,
1,
-1,
-11,
-12,
-21,
-22,
-26,
-26,
-24,
-24,
-17,
-17,
-6,
-5,
8,
8,
18,
18,
23,
24,
23,
24,
18,
17,
7,
6,
-7,
-7,
-16,
-17,
-24,
-24,
-26,
-26,
-21,
-21,
-11,
-11,
2,
2,
13,
13,
21,
21,
25,
24,
22,
21,
13,
12,
1,
0,
-11,
-12,
-21,
-22,
-26,
-26,
-24,
-25,
-17,
-17,
-6,
-5,
7,
8,
18,
18,
23,
24,
23,
24,
18,
18,
7,
6,
-7,
-8,
-16,
-18,
-24,
-24,
-26,
-26,
-22,
-22,
-11,
-11,
2,
2,
12,
13,
21,
21,
24,
25,
22,
22,
13,
12,
1,
-1,
-11,
-12,
-21,
-22,
-26,
-26,
-24,
-24,
-17,
-17,
-5,
-5,
7,
8,
18,
18,
23,
24,
23,
24,
18,
18,
7,
6,
-6,
-7,
-16,
-17,
-24,
-24,
-26,
-26,
-22,
-22,
-11,
-11,
2,
2,
12,
13,
21,
21,
24,
24,
22,
21,
13,
12,
1,
-1,
-11,
-12,
-21,
-22,
-25,
-26,
-24,
-25,
-17,
-17,
-6,
-5,
8,
8,
18,
19,
23,
23,
24,
23,
18,
18,
7,
6,
-6,
-7,
-16,
-17,
-24,
-24,
-26,
-26,
-22,
-22,
-12,
-11,
1,
2,
12,
13,
21,
21,
24,
24,
22,
22,
13,
12,
1,
-1,
-12,
-12,
-21,
-21,
-26,
-26,
-24,
-25,
-17,
-17,
-6,
-5,
7,
8,
18,
18,
23,
24,
23,
24,
18,
18,
7,
6,
-7,
-7,
-17,
-18,
-24,
-24,
-26,
-26,
-22,
-22,
-11,
-11,
2,
2,
12,
13,
21,
21,
24,
24,
22,
21,
13,
12,
1,
0,
-11,
-12,
-21,
-22,
-26,
-26,
-24,
-25,
-16,
-17,
-5,
-5,
7,
8,
17,
18,
23,
23,
24,
24,
18,
18,
7,
6,
-7,
-8,
-16,
-17,
-24,
-24,
-26,
-26,
-22,
-22,
-11,
-11,
2,
2,
12,
13,
21,
21,
24,
24,
22,
22,
13,
12,
1,
0,
-11,
-12,
-21,
-22,
-25,
-25,
-26,
-25,
-17,
-17,
-5,
-4,
7,
8,
18,
19,
23,
24,
23,
24,
18,
18,
7,
6,
-6,
-7,
-16,
-17,
-24,
-24,
-26,
-26,
-22,
-22,
-11,
-11,
2,
2,
12,
13,
21,
21,
24,
25,
22,
22,
13,
12,
1,
0,
-11,
-12,
-22,
-22,
-26,
-26,
-24,
-24,
-17,
-17,
-6,
-5,
7,
8,
18,
18,
23,
24,
23,
23,
18,
18,
7,
6,
-6,
-8,
-16,
-17,
-24,
-24,
-26,
-26,
-21,
-21,
-11,
-11,
2,
2,
12,
13,
22,
22,
24,
24,
22,
22,
13,
12,
0,
-1,
-11,
-12,
-21,
-22,
-25,
-26,
-24,
-25,
-17,
-17,
-6,
-5,
7,
7,
18,
18,
23,
24,
23,
23,
19,
18,
7,
6,
-6,
-7,
-16,
-18,
-24,
-24,
-26,
-26,
-21,
-22,
-11,
-11,
1,
2,
12,
13,
21,
21,
24,
24,
22,
21,
13,
12,
1,
-1,
-12,
-12,
-21,
-21,
-26,
-27,
-24,
-25,
-17,
-17,
-5,
-5,
8,
8,
18,
18,
23,
23,
24,
24,
18,
18,
7,
6,
-7,
-8,
-16,
-18,
-24,
-24,
-26,
-26,
-22,
-22,
-11,
-11,
1,
2,
12,
13,
21,
21,
24,
25,
21,
21,
13,
12,
1,
-1,
-11,
-12,
-21,
-22,
-25,
-25,
-26,
-25,
-17,
-17,
-6,
-5,
7,
8,
18,
18,
23,
24,
23,
24,
18,
17,
7,
6,
-7,
-8,
-17,
-18,
-25,
-24,
-26,
-26,
-22,
-22,
-11,
-11,
2,
2,
12,
13,
21,
21,
24,
24,
22,
21,
13,
12,
1,
-1,
-12,
-12,
-22,
-22,
-25,
-27,
-24,
-24,
-17,
-17,
-6,
-5,
8,
8,
18,
18,
23,
24,
23,
23,
18,
18,
7,
6,
-6,
-7,
-16,
-17,
-24,
-24,
-26,
-26,
-22,
-22,
-11,
-11,
2,
2,
12,
13,
21,
21,
25,
25,
21,
21,
13,
11,
1,
-1,
-11,
-12,
-22,
-21,
-25,
-26,
-24,
-25,
-17,
-16,
-6,
-5,
8,
8,
18,
18,
23,
25,
23,
23,
18,
18,
7,
6,
-7,
-8,
-16,
-17,
-24,
-24,
-26,
-26,
-22,
-22,
-12,
-11,
2,
3,
12,
13,
21,
21,
24,
24,
21,
21,
13,
12,
1,
-1,
-11,
-12,
-21,
-22,
-26,
-26,
-24,
-24,
-17,
-17,
-6,
-6,
9,
8,
18,
18,
23,
25,
23,
23,
18,
17,
7,
6,
-7,
-8,
-16,
-18,
-24,
-24,
-27,
-26,
-22,
-22,
-11,
-11,
2,
2,
12,
13,
21,
22,
24,
24,
22,
22,
13,
12,
0,
-1,
-11,
-12,
-21,
-22,
-26,
-26,
-24,
-24,
-17,
-17,
-6,
-5,
8,
8,
18,
18,
23,
24,
23,
23,
18,
18,
7,
6,
-7,
-8,
-17,
-18,
-24,
-24,
-26,
-26,
-22,
-22,
-11,
-11,
2,
2,
13,
13,
21,
21,
24,
24,
22,
21,
13,
12,
1,
-1,
-11,
-12,
-21,
-22,
-25,
-26,
-24,
-25,
-17,
-17,
-6,
-5,
8,
8,
18,
18,
23,
23,
25,
24,
18,
18,
7,
6,
-7,
-7,
-16,
-17,
-24,
-24,
-26,
-26,
-22,
-22,
-11,
-11,
2,
2,
12,
13,
21,
21,
24,
24,
21,
22,
13,
12,
1,
0,
-12,
-12,
-21,
-22,
-25,
-26,
-24,
-25,
-17,
-17,
-6,
-6,
8,
8,
18,
18,
23,
23,
24,
23,
19,
18,
7,
6,
-7,
-7,
-16,
-18,
-24,
-24,
-27,
-26,
-22,
-22,
-11,
-11,
2,
3,
12,
13,
21,
21,
24,
24,
22,
21,
12,
12,
1,
0,
-11,
-12,
-21,
-22,
-25,
-24,
-26,
-24,
-17,
-17,
-5,
-4,
8,
8,
18,
18,
23,
24,
23,
24,
18,
18,
7,
6,
-7,
-7,
-16,
-18,
-24,
-24,
-26,
-26,
-22,
-22,
-11,
-11,
2,
2,
12,
13,
21,
22,
24,
24,
22,
21,
13,
12,
1,
-1,
-11,
-12,
-21,
-22,
-26,
-26,
-24,
-25,
-16,
-17,
-5,
-5,
7,
8,
18,
18,
23,
23,
25,
23,
19,
18,
7,
6,
-6,
-7,
-16,
-17,
-24,
-24,
-26,
-26,
-22,
-21,
-11,
-10,
2,
2,
12,
13,
21,
21,
25,
24,
22,
21,
13,
12,
1,
0,
-11,
-12,
-21,
-22,
-25,
-26,
-24,
-24,
-17,
-17,
-5,
-4,
8,
8,
18,
18,
23,
24,
23,
23,
18,
18,
7,
6,
-7,
-8,
-16,
-17,
-24,
-24,
-26,
-26,
-22,
-22,
-11,
-11,
2,
2,
12,
12,
21,
21,
25,
24,
22,
22,
13,
12,
1,
-1,
-11,
-12,
-21,
-22,
-25,
-26,
-24,
-25,
-19,
-20,
-15,
-16,
-14,
-14,
-16,
-15,
-16,
-16,
-13,
-14,
-11,
-11,
-4,
-4,
5,
5,
14,
14,
22,
22,
25,
25,
22,
22,
10,
9,
-2,
-4,
-14,
-15,
-23,
-23,
-27,
-27,
-23,
-23,
-14,
-14,
-2,
-2,
10,
10,
20,
20,
24,
25,
23,
23,
16,
15,
5,
4,
-9,
-10,
-19,
-20,
-25,
-25,
-27,
-26,
-19,
-20,
-9,
-9,
5,
5,
15,
16,
22,
22,
25,
25,
21,
20,
10,
9,
-3,
-4,
-14,
-15,
-23,
-23,
-26,
-26,
-23,
-24,
-14,
-14,
-2,
-2,
10,
10,
20,
21,
24,
25,
23,
23,
16,
15,
4,
3,
-9,
-10,
-19,
-20,
-25,
-25,
-27,
-26,
-20,
-20,
-8,
-8,
5,
5,
15,
16,
22,
22,
24,
24,
20,
20,
16,
16,
13,
13,
14,
14,
13,
14,
13,
13,
10,
11,
7,
7,
-2,
-4,
-10,
-11,
-20,
-21,
-26,
-25,
-27,
-26,
-21,
-21,
-15,
-16,
-14,
-14,
-16,
-16,
-14,
-15,
-13,
-14,
-11,
-11,
-4,
-4,
6,
6,
14,
15,
22,
22,
25,
25,
22,
22,
16,
16,
13,
13,
14,
13,
14,
14,
13,
13,
10,
11,
7,
7,
-2,
-3,
-11,
-11,
-20,
-21,
-26,
-25,
-27,
-26,
-20,
-20,
-15,
-16,
-14,
-15,
-16,
-16,
-14,
-16,
-13,
-14,
-11,
-11,
-4,
-4,
5,
5,
14,
15,
22,
22,
25,
25,
22,
21,
10,
9,
-3,
-4,
-13,
-15,
-23,
-23,
-26,
-26,
-23,
-23,
-14,
-14,
-2,
-2,
10,
10,
20,
20,
24,
25,
23,
23,
18,
18,
14,
14,
13,
14,
13,
13,
14,
14,
12,
12,
9,
10,
3,
2,
-7,
-7,
-15,
-16,
-24,
-24,
-27,
-27,
-23,
-23,
-11,
-11,
2,
2,
12,
13,
21,
21,
25,
25,
22,
22,
13,
12,
0,
-1,
-11,
-12,
-21,
-22,
-26,
-26,
-24,
-25,
-20,
-20,
-15,
-16,
-14,
-14,
-16,
-14,
-15,
-16,
-13,
-13,
-11,
-11,
-4,
-4,
6,
6,
14,
15,
22,
22,
25,
25,
22,
21,
10,
9,
-3,
-4,
-14,
-15,
-23,
-23,
-26,
-26,
-23,
-23,
-14,
-14,
-2,
-2,
10,
10,
20,
20,
24,
24,
23,
23,
16,
15,
4,
3,
-9,
-10,
-19,
-20,
-24,
-25,
-26,
-26,
-20,
-20,
-9,
-9,
5,
5,
16,
16,
22,
22,
25,
24,
21,
20,
16,
16,
13,
14,
13,
14,
13,
14,
13,
14,
10,
11,
7,
7,
-3,
-3,
-11,
-11,
-19,
-20,
-25,
-25,
-27,
-26,
-17,
-17,
-5,
-5,
8,
8,
18,
18,
23,
25,
23,
24,
18,
17,
7,
7,
-6,
-7,
-16,
-17,
-25,
-24,
-26,
-26,
-22,
-22,
-17,
-17,
-15,
-14,
-15,
-15,
-15,
-16,
-14,
-15,
-12,
-12,
-8,
-9,
2,
1,
9,
10,
19,
19,
24,
25,
24,
24,
19,
18,
13,
14,
13,
14,
13,
14,
13,
13,
12,
12,
9,
9,
3,
2,
-7,
-8,
-15,
-16,
-24,
-24,
-27,
-27,
-24,
-23,
-11,
-11,
2,
2,
12,
13,
21,
22,
25,
25,
22,
22,
13,
12,
1,
0,
-12,
-12,
-21,
-22,
-26,
-26,
-24,
-24,
-17,
-17,
-5,
-5,
8,
8,
18,
18,
23,
23,
25,
24,
18,
18,
8,
6,
-6,
-7,
-16,
-17,
-24,
-24,
-27,
-26,
-21,
-22,
-11,
-11,
2,
2,
12,
13,
21,
21,
25,
25,
21,
21,
13,
11,
1,
0,
-11,
-12,
-21,
-22,
-25,
-27,
-24,
-25,
-16,
-17,
-6,
-5,
8,
8,
18,
18,
23,
23,
25,
23,
18,
18,
7,
6,
-6,
-7,
-16,
-18,
-24,
-24,
-26,
-26,
-21,
-21,
-11,
-11,
2,
2,
13,
13,
21,
21,
24,
25,
22,
22,
13,
12,
1,
-1,
-11,
-12,
-21,
-22,
-26,
-27,
-24,
-25,
-19,
-19,
-15,
-14,
-15,
-14,
-15,
-14,
-15,
-16,
-13,
-14,
-11,
-11,
-4,
-4,
5,
5,
14,
15,
22,
22,
25,
25,
22,
22,
16,
16,
13,
14,
13,
14,
13,
14,
13,
13,
10,
10,
6,
6,
-3,
-4,
-11,
-12,
-20,
-20,
-26,
-25,
-27,
-27,
-17,
-17,
-5,
-5,
8,
8,
18,
18,
23,
23,
25,
24,
18,
18,
7,
6,
-6,
-7,
-17,
-18,
-24,
-24,
-26,
-26,
-21,
-22,
-11,
-11,
2,
2,
12,
13,
22,
21,
24,
24,
21,
21,
13,
12,
1,
-1,
-11,
-12,
-21,
-22,
-25,
-25,
-26,
-24,
-20,
-20,
-15,
-14,
-15,
-14,
-15,
-14,
-16,
-16,
-13,
-14,
-11,
-11,
-4,
-4,
6,
6,
14,
15,
22,
22,
25,
25,
22,
22,
10,
9,
-3,
-4,
-13,
-15,
-22,
-23,
-27,
-27,
-23,
-23,
-14,
-14,
-2,
-2,
10,
10,
20,
19,
24,
24,
23,
23,
18,
18,
14,
14,
13,
14,
13,
14,
13,
14,
12,
12,
9,
9,
3,
1,
-8,
-8,
-15,
-16,
-23,
-24,
-26,
-27,
-23,
-23,
-11,
-11,
2,
3,
13,
13,
21,
21,
24,
25,
22,
22,
13,
12,
1,
0,
-11,
-12,
-22,
-22,
-25,
-26,
-24,
-24,
-19,
-20,
-15,
-16,
-14,
-14,
-15,
-14,
-15,
-16,
-13,
-14,
-11,
-11,
-4,
-4,
6,
6,
14,
14,
22,
22,
25,
25,
22,
22,
10,
9,
-3,
-4,
-14,
-15,
-23,
-23,
-26,
-26,
-23,
-23,
-14,
-14,
-2,
-2,
10,
10,
20,
20,
24,
25,
23,
23,
18,
18,
14,
14,
12,
14,
13,
14,
13,
14,
12,
12,
9,
9,
2,
1,
-7,
-7,
-15,
-16,
-23,
-24,
-27,
-27,
-23,
-23,
-11,
-11,
2,
2,
13,
13,
22,
21,
24,
25,
22,
22,
13,
12,
1,
-1,
-12,
-12,
-21,
-21,
-25,
-26,
-24,
-25,
-17,
-17,
-6,
-5,
8,
8,
18,
18,
23,
23,
25,
23,
19,
18,
8,
6,
-6,
-7,
-16,
-17,
-24,
-24,
-27,
-27,
-22,
-22,
-17,
-17,
-15,
-15,
-16,
-15,
-16,
-14,
-16,
-15,
-12,
-12,
-8,
-9,
1,
1,
9,
10,
18,
19,
24,
25,
24,
24,
19,
18,
13,
14,
13,
14,
13,
14,
13,
14,
11,
12,
9,
9,
3,
1,
-7,
-8,
-15,
-16,
-24,
-24,
-26,
-27,
-23,
-23,
-11,
-11,
2,
3,
12,
13,
21,
21,
25,
24,
22,
22,
13,
11,
1,
0,
-11,
-12,
-22,
-22,
-26,
-26,
-24,
-25,
-19,
-19,
-15,
-16,
-14,
-15,
-14,
-14,
-15,
-16,
-14,
-14,
-11,
-11,
-4,
-4,
5,
6,
14,
14,
23,
23,
25,
25,
23,
22,
16,
16,
13,
13,
13,
14,
13,
14,
13,
13,
10,
11,
7,
6,
-2,
-3,
-11,
-11,
-20,
-21,
-26,
-26,
-27,
-26,
-17,
-18,
-6,
-5,
7,
8,
18,
19,
23,
23,
25,
24,
18,
18,
7,
6,
-6,
-8,
-16,
-17,
-24,
-24,
-26,
-26,
-22,
-22,
-11,
-11,
2,
3,
12,
13,
21,
22,
24,
25,
22,
21,
13,
12,
1,
-1,
-11,
-12,
-21,
-22,
-26,
-26,
-24,
-24,
-19,
-20,
-15,
-16,
-14,
-16,
-14,
-16,
-14,
-16,
-13,
-14,
-11,
-12,
-4,
-4,
6,
5,
14,
15,
22,
22,
25,
25,
22,
21,
10,
9,
-3,
-5,
-14,
-15,
-23,
-23,
-26,
-26,
-23,
-23,
-14,
-14,
-2,
-2,
9,
10,
20,
20,
24,
25,
23,
22,
18,
18,
14,
14,
13,
14,
13,
14,
13,
14,
12,
12,
9,
9,
2,
2,
-7,
-8,
-15,
-16,
-24,
-24,
-26,
-26,
-24,
-23,
-17,
-17,
-14,
-14,
-15,
-14,
-16,
-16,
-14,
-15,
-11,
-12,
-8,
-9,
1,
1,
9,
9,
19,
19,
25,
25,
24,
25,
16,
15,
4,
3,
-9,
-9,
-19,
-20,
-25,
-25,
-26,
-26,
-19,
-20,
-8,
-8,
5,
5,
15,
16,
23,
23,
25,
25,
20,
20,
9,
9,
-3,
-4,
-14,
-15,
-23,
-23,
-26,
-26,
-23,
-23,
-13,
-14,
-2,
-1,
10,
10,
20,
20,
24,
25,
22,
23,
16,
15,
4,
3,
-9,
-10,
-19,
-20,
-25,
-25,
-27,
-26,
-20,
-20,
-8,
-8,
5,
6,
16,
16,
22,
22,
25,
24,
20,
21,
16,
15,
13,
13,
14,
14,
13,
14,
13,
13,
10,
10,
7,
6,
-3,
-3,
-11,
-12,
-20,
-21,
-26,
-26,
-27,
-27,
-20,
-20,
-15,
-14,
-16,
-15,
-16,
-15,
-16,
-16,
-14,
-14,
-11,
-11,
-4,
-4,
6,
6,
14,
15,
22,
22,
25,
25,
22,
22,
10,
9,
-3,
-4,
-14,
-15,
-23,
-23,
-26,
-26,
-23,
-23,
-14,
-14,
-2,
-2,
10,
10,
20,
20,
24,
24,
22,
23,
15,
15,
4,
3,
-9,
-10,
-19,
-20,
-25,
-25,
-26,
-25,
-19,
-20,
-8,
-8,
5,
5,
15,
16,
22,
22,
25,
25,
21,
20,
10,
9,
-4,
-4,
-14,
-15,
-23,
-23,
-26,
-26,
-23,
-23,
-14,
-14,
-2,
-2,
10,
10,
20,
20,
24,
25,
23,
22,
16,
15,
5,
4,
-9,
-10,
-19,
-20,
-25,
-27,
-24,
-25,
-20,
-19,
-8,
-8,
6,
6,
15,
15,
23,
22,
24,
24,
20,
20,
10,
9,
-3,
-4,
-14,
-15,
-23,
-23,
-26,
-26,
-23,
-24,
-14,
-14,
-2,
-2,
10,
10,
20,
20,
24,
25,
22,
23,
16,
15,
4,
3,
-9,
-10,
-19,
-20,
-25,
-25,
-26,
-25,
-20,
-20,
-8,
-8,
5,
5,
16,
16,
23,
22,
25,
24,
21,
20,
10,
9,
-3,
-4,
-14,
-15,
-23,
-23,
-26,
-26,
-23,
-23,
-14,
-13,
-2,
-1,
10,
11,
20,
20,
24,
25,
23,
22,
16,
15,
4,
3,
-9,
-9,
-19,
-20,
-25,
-25,
-26,
-26,
-19,
-20,
-8,
-8,
5,
5,
15,
16,
22,
22,
25,
24,
20,
20,
10,
9,
-3,
-4,
-13,
-15,
-23,
-23,
-26,
-26,
-23,
-23,
-14,
-14,
-2,
-2,
10,
11,
20,
20,
24,
25,
23,
23,
16,
16,
4,
3,
-9,
-10,
-19,
-20,
-25,
-25,
-27,
-26,
-20,
-20,
-8,
-8,
5,
6,
15,
16,
22,
22,
24,
24,
20,
20,
10,
9,
-3,
-4,
-14,
-15,
-23,
-23,
-26,
-27,
-23,
-23,
-14,
-14,
-2,
-2,
10,
10,
20,
20,
24,
25,
23,
23,
18,
18,
13,
14,
13,
13,
13,
14,
13,
14,
12,
12,
10,
10,
3,
2,
-7,
-8,
-15,
-16,
-24,
-24,
-27,
-27,
-23,
-24,
-17,
-18,
-15,
-15,
-16,
-14,
-16,
-15,
-16,
-15,
-12,
-12,
-9,
-8,
1,
1,
10,
10,
18,
19,
24,
25,
24,
24,
18,
18,
13,
14,
12,
13,
13,
14,
13,
14,
12,
12,
8,
9,
3,
2,
-7,
-8,
-15,
-16,
-24,
-24,
-27,
-27,
-24,
-24,
-17,
-18,
-15,
-14,
-16,
-15,
-16,
-15,
-16,
-16,
-12,
-13,
-8,
-8,
1,
1,
10,
10,
19,
19,
24,
23,
25,
24,
16,
15,
4,
3,
-10,
-10,
-19,
-20,
-25,
-26,
-24,
-25,
-20,
-20,
-9,
-8,
5,
5,
16,
16,
23,
23,
25,
25,
20,
19,
9,
9,
